TASK - 3/RTL/waves.vcd
$date
	Mon Mar 30 17:01:58 2026
$end
$version
	Icarus Verilog
$end
$timescale
	1ps
$end
$scope module SOC_IP_tb $end
$var wire 1 ! TXD $end
$var wire 5 " LEDS [4:0] $end
$var reg 1 # RESET $end
$var reg 1 $ RXD $end
$var reg 32 % ext_pins [31:0] $end
$scope module uut $end
$var wire 32 & GPIO_ext_pins [31:0] $end
$var wire 1 ' GPIO_sel $end
$var wire 1 # RESET $end
$var wire 1 $ RXD $end
$var wire 1 ( uart_valid $end
$var wire 1 ) uart_ready $end
$var wire 1 * resetn $end
$var wire 2 + offset [1:0] $end
$var wire 1 , mem_wstrb $end
$var wire 30 - mem_wordaddr [29:0] $end
$var wire 4 . mem_wmask [3:0] $end
$var wire 32 / mem_wdata [31:0] $end
$var wire 1 0 mem_rstrb $end
$var wire 32 1 mem_rdata [31:0] $end
$var wire 32 2 mem_addr [31:0] $end
$var wire 1 3 isRAM $end
$var wire 1 4 isIO $end
$var wire 1 5 clk_int $end
$var wire 1 6 clk $end
$var wire 1 ! TXD $end
$var wire 32 7 RAM_rdata [31:0] $end
$var wire 32 8 IO_rdata [31:0] $end
$var wire 32 9 GPIO_rdata [31:0] $end
$var parameter 32 : IO_LEDS_bit $end
$var parameter 32 ; IO_UART_CNTL_bit $end
$var parameter 32 < IO_UART_DAT_bit $end
$var reg 5 = LEDS [4:0] $end
$scope module CPU $end
$var wire 1 > LOAD_sign $end
$var wire 32 ? aluIn1 [31:0] $end
$var wire 32 @ mem_rdata [31:0] $end
$var wire 1 0 mem_rstrb $end
$var wire 4 A mem_wmask [3:0] $end
$var wire 1 B writeBackEn $end
$var wire 32 C writeBackData [31:0] $end
$var wire 32 D shifter_in [31:0] $end
$var wire 32 E shifter [31:0] $end
$var wire 5 F shamt [4:0] $end
$var wire 5 G rs2Id [4:0] $end
$var wire 5 H rs1Id [4:0] $end
$var wire 1 * resetn $end
$var wire 5 I rdId [4:0] $end
$var wire 32 J nextPC [31:0] $end
$var wire 32 K mem_wdata [31:0] $end
$var wire 1 L mem_halfwordAccess $end
$var wire 1 M mem_byteAccess $end
$var wire 32 N mem_addr [31:0] $end
$var wire 32 O loadstore_addr [31:0] $end
$var wire 32 P leftshift [31:0] $end
$var wire 1 Q isStore $end
$var wire 1 R isSYSTEM $end
$var wire 1 S isLoad $end
$var wire 1 T isLUI $end
$var wire 1 U isJALR $end
$var wire 1 V isJAL $end
$var wire 1 W isBranch $end
$var wire 1 X isAUIPC $end
$var wire 1 Y isALUreg $end
$var wire 1 Z isALUimm $end
$var wire 7 [ funct7 [6:0] $end
$var wire 3 \ funct3 [2:0] $end
$var wire 1 6 clk $end
$var wire 32 ] aluPlus [31:0] $end
$var wire 33 ^ aluMinus [32:0] $end
$var wire 32 _ aluIn2 [31:0] $end
$var wire 32 ` Uimm [31:0] $end
$var wire 32 a Simm [31:0] $end
$var wire 4 b STORE_wmask [3:0] $end
$var wire 32 c PCplusImm [31:0] $end
$var wire 32 d PCplus4 [31:0] $end
$var wire 1 e LTU $end
$var wire 1 f LT $end
$var wire 16 g LOAD_halfword [15:0] $end
$var wire 32 h LOAD_data [31:0] $end
$var wire 8 i LOAD_byte [7:0] $end
$var wire 32 j Jimm [31:0] $end
$var wire 32 k Iimm [31:0] $end
$var wire 1 l EQ $end
$var wire 32 m Bimm [31:0] $end
$var parameter 32 n EXECUTE $end
$var parameter 32 o FETCH_INSTR $end
$var parameter 32 p FETCH_REGS $end
$var parameter 32 q LOAD $end
$var parameter 32 r STORE $end
$var parameter 32 s WAIT_DATA $end
$var parameter 32 t WAIT_INSTR $end
$var reg 32 u PC [31:0] $end
$var reg 32 v aluOut [31:0] $end
$var reg 32 w instr [31:0] $end
$var reg 32 x rs1 [31:0] $end
$var reg 32 y rs2 [31:0] $end
$var reg 3 z state [2:0] $end
$var reg 1 { takeBranch $end
$var integer 32 | i [31:0] $end
$scope function flip32 $end
$var reg 32 } x [31:0] $end
$upscope $end
$upscope $end
$scope module CW $end
$var wire 1 # RESET $end
$var wire 1 * resetn $end
$var wire 1 6 clk $end
$var wire 1 5 CLK $end
$var parameter 32 ~ SLOW $end
$scope begin genblk1 $end
$var reg 2 !" reset_cnt [1:0] $end
$upscope $end
$upscope $end
$scope module RAM $end
$var wire 1 6 clk $end
$var wire 32 "" mem_addr [31:0] $end
$var wire 1 #" mem_rstrb $end
$var wire 32 $" mem_wdata [31:0] $end
$var wire 4 %" mem_wmask [3:0] $end
$var wire 30 &" word_addr [29:0] $end
$var reg 32 '" mem_rdata [31:0] $end
$upscope $end
$scope module UART $end
$var wire 1 6 i_clk $end
$var wire 8 (" i_data [7:0] $end
$var wire 1 )" i_rst $end
$var wire 1 ( i_valid $end
$var wire 1 ! o_uart_tx $end
$var parameter 64 *" START_VALUE $end
$var parameter 32 +" WIDTH $end
$var parameter 32 ," baud_rate $end
$var parameter 64 -" clk_freq_hz $end
$var reg 12 ." cnt [11:0] $end
$var reg 10 /" data [9:0] $end
$var reg 1 ) o_ready $end
$upscope $end
$scope module gpio $end
$var wire 32 0" IP_ext_in [31:0] $end
$var wire 1 ' IP_sel $end
$var wire 32 1" IP_wdata [31:0] $end
$var wire 1 6 clk $end
$var wire 2 2" decode [1:0] $end
$var wire 1 * rst $end
$var wire 1 , wen $end
$var reg 32 3" GPIO_data [31:0] $end
$var reg 32 4" GPIO_dir [31:0] $end
$var reg 32 5" GPIO_read [31:0] $end
$var reg 32 6" IP_rdata [31:0] $end
$upscope $end
$scope module hfosc $end
$var wire 1 7" CLKHFEN $end
$var wire 1 8" CLKHFPU $end
$var parameter 32 9" CLKHF_DIV $end
$var reg 1 5 CLKHF $end
$upscope $end
$upscope $end
$upscope $end
$enddefinitions $end
$comment Show the parameter values. $end
$dumpall
b110000011000100011000100110000 9"
b101101110001101100000000 -"
b10010110000000 ,"
b1011 +"
b10011100010 *"
b0 ~
b1 t
b101 s
b110 r
b100 q
b10 p
b0 o
b11 n
b11 <
b100 ;
b10 :
$end
#0
$dumpvars
18"
17"
bx 6"
bx 5"
bx 4"
bx 3"
b0 2"
bx 1"
b10010001101000000000000000000 0"
bx /"
b0 ."
1)"
bx ("
bx '"
b0 &"
b0 %"
bx $"
1#"
b0 ""
b0 !"
bx }
b100000 |
x{
b0 z
bx y
bx x
bx w
bx v
b0 u
bx0 m
xl
bx k
bx0 j
bx i
bx h
bx g
xf
xe
b100 d
bx c
bx b
bx a
bx000000000000 `
bx _
bx ^
bx ]
bx \
bx [
xZ
xY
xX
xW
xV
xU
xT
xS
xR
xQ
bx P
bx O
b0 N
xM
xL
bx K
bx J
bx I
bx H
bx G
bx F
bx E
bx D
bx C
0B
b0 A
bx @
bx ?
x>
bx =
bx 9
b0 8
bx 7
06
05
04
13
b0 2
bx 1
10
bx /
b0 .
b0 -
0,
b0 +
0*
x)
0(
0'
b10010001101000000000000000000 &
b10010001101000000000000000000 %
1$
1#
bx "
x!
$end
#41666
bx000x00x1 g
b11111110000000010000000100010011 1
b11111110000000010000000100010011 @
b0 9
b0 6"
b10010001101000000000000000000 5"
b11111110000000010000000100010011 7
b11111110000000010000000100010011 '"
b0 4"
b0 3"
b111111111111 ."
16
15
#50000
0#
#83332
06
05
#124998
b0xxxxxxxxx /"
b10011100010 ."
b1 !"
16
15
#166664
06
05
#208330
b10011100001 ."
b10 !"
16
15
#249996
06
05
#291662
b10011100000 ."
0)"
1*
b11 !"
16
15
#333328
06
05
#374994
0#"
00
b1 z
b10011011111 ."
16
15
#416660
06
05
#458326
bx000x00xx g
b0x000000000 8
bx00000000x000000xx000x00xx 1
bx00000000x000000xx000x00xx @
x'
bx +
bx 2"
bx &"
x3
x4
bx -
b11111111111111111111111111100000 _
b100 J
bx 2
bx N
bx ""
1M
0L
b0 F
b11111110000000010000000000000000 c
0Y
1Z
0W
0U
0V
0X
0T
0S
0Q
0R
b11111110000000010000000000000000 `
b11111111111111111111111111100000 k
b11111111111111111111111111100010 a
b11111111111111111111011111100010 m
b11111111111100010000011111100000 j
b10 H
b0 G
b10 I
b0 \
b1111111 [
b10011011110 ."
b10 z
b11111110000000010000000100010011 w
16
15
#499992
06
05
#541658
1'
0>
b11111111111111111111111111100000 C
1B
b0 h
b1 b
b0x000000000 1
b0x000000000 @
b0 +
b0 2"
0f
b0 P
b0 ("
b0x000000000 g
b0 i
b111111111111111111111111111000 &"
03
14
b111111111111111111111111111000 -
0{
b0 E
b0 /
b0 K
b0 $"
b0 1"
b11111111111111111111111111100000 2
b11111111111111111111111111100000 N
b11111111111111111111111111100000 ""
1e
0l
b11111111111111111111111111100000 v
b0 }
b0 D
b11 z
b0 y
b11111111111111111111111111100000 O
b11111111111111111111111111100000 ]
b100000000000000000000000000100000 ^
b0 ?
b0 x
b10011011101 ."
16
15
#583324
06
05
#624990
b10011 h
b10011 i
b100010011 g
b0 8
b11111110000000010000000100010011 1
b11111110000000010000000100010011 @
1#"
0'
b1 +
b1 2"
0B
b1 &"
13
04
b1 -
b100 2
b100 N
b100 ""
b1000 J
10
b10011011100 ."
b0 z
b11111110000000010000000000000100 c
b1000 d
b100 u
16
15
#666656
06
05
#708322
b100011 h
b100011 i
b10111000100011 g
0#"
00
b100010010111000100011 1
b100010010111000100011 @
b1 z
b100010010111000100011 7
b100010010111000100011 '"
b10011011011 ."
16
15
#749988
06
05
#791654
b1 C
1f
b11 +
b11 2"
b111 &"
b111 -
b111111111111111111111111111111111 ^
b100010010111000100011 h
b1111 b
b100000 c
b11100 2
b11100 N
b11100 ""
b1 ]
b1 _
b11100 O
0M
b1 F
b1 v
0Z
1Q
b100010010000000000000 `
b1 k
b11100 a
b11100 m
b10010100000000000 j
b1 G
b11100 I
b10 \
b0 [
b10011011010 ."
b10 z
b100010010111000100011 w
16
15
#833320
06
05
#874986
b0 i
b0x000000000 g
b0x000000000 h
b0x000000000 8
b0x000000000 1
b0x000000000 @
b1111111111111111111111111110 P
b111111111111111111111111111111 &"
03
14
b111111111111111111111111111111 -
b1111111111111111111111111110000 E
b11111111111111111111111111111100 2
b11111111111111111111111111111100 N
b11111111111111111111111111111100 ""
0e
b1111111111111111111111111110000 }
b11111111111111111111111111100000 D
b11 z
b11111111111111111111111111111100 O
b11111111111111111111111111100001 ]
b11111111111111111111111111011111 ^
b11111111111111111111111111100000 ?
b11111111111111111111111111100000 x
b10011011001 ."
16
15
#916652
06
05
#958318
1(
b1100 J
1,
b1111 .
b1111 A
b10011011000 ."
b110 z
b100100 c
b1100 d
b1000 u
16
15
#999984
06
05
#1041650
b100011 i
b10111000100011 g
b100010010111000100011 h
b10010001101000000000000000000 9
b10010001101000000000000000000 6"
b0 8
b100010010111000100011 1
b100010010111000100011 @
1#"
b10 +
b10 2"
b10 &"
13
04
b10 -
0(
b1000 2
b1000 N
b1000 ""
10
0,
b0 .
b0 A
b0 z
b10011010111 ."
b0 "
b0 =
16
15
#1083316
06
05
#1124982
b10110000100011 g
b100000010010110000100011 h
0#"
b100000010010110000100011 1
b100000010010110000100011 @
00
b10011010110 ."
b100000010010110000100011 7
b100000010010110000100011 '"
b1 z
16
15
#1166648
06
05
#1208314
b0 i
b0x000000000 g
b0x000000000 h
b0x000000000 8
b11111111111111111111111100000000 P
b111111111111111111111111 }
b0x000000000 1
b0x000000000 @
1'
b111111111111111111111111 E
b111111111111111111111111111110 &"
03
14
b111111111111111111111111111110 -
b11111111111111111111111111011000 ^
b100000 c
b11111111111111111111111111111000 2
b11111111111111111111111111111000 N
b11111111111111111111111111111000 ""
b11111111111111111111111111101000 ]
b1000 _
b11111111111111111111111111111000 O
b1000 F
b100000010010000000000000 `
b1000 k
b11000 a
b11000 m
b10010000000001000 j
b1000 G
b11000 I
b10 z
b100000010010110000100011 w
b10011010101 ."
16
15
#1249980
06
05
#1291646
b10011010100 ."
b11 z
16
15
#1333312
06
05
#1374978
1(
b10000 J
1,
b1111 .
b1111 A
b110 z
b100100 c
b10000 d
b1100 u
b10011010011 ."
16
15
#1416644
06
05
#1458310
b100011 i
b10110000100011 g
b100000010010110000100011 h
b0 9
b0 6"
b0 8
b100000010010110000100011 1
b100000010010110000100011 @
1#"
0'
b11 +
b11 2"
b11 &"
13
04
b11 -
0(
b1100 2
b1100 N
b1100 ""
10
0,
b0 .
b0 A
b10011010010 ."
b0 z
16
15
#1499976
06
05
#1541642
b10011 i
b10000010011 g
b10000000010000010000010011 h
0#"
00
b10000000010000010000010011 1
b10000000010000010000010011 @
b1 z
b10000000010000010000010011 7
b10000000010000010000010011 '"
b10011010001 ."
16
15
#1583308
06
05
#1624974
b0 C
b111111111111111111111111111 P
b11111111111111111111111111100000 }
b0 +
b0 2"
b11111111111111111111111111100000 E
b0 &"
b0 -
b11111111111111111111111111000000 ^
b10011 h
b1 b
b10000000010000000000001100 c
b0 2
b0 N
b0 ""
b0 ]
b100000 _
b0 O
1M
b0 F
b0 v
1Z
0Q
b10000000010000000000000000 `
b100000 k
b101000 a
b101000 m
b10000000000100000 j
b0 G
b1000 I
b0 \
b1 [
b10011010000 ."
b10 z
b10000000010000010000010011 w
16
15
#1666640
06
05
#1708306
1B
b11 z
b10011001111 ."
16
15
#1749972
06
05
#1791638
0B
b100 &"
b100 -
b10000 2
b10000 N
b10000 ""
1#"
b10100 J
10
b10011001110 ."
b0 z
b10000000010000000000010000 c
b10100 d
b10000 u
16
15
#1833304
06
05
#1874970
1>
b11111111111111111111111110110111 h
b10110111 i
b11110110111 g
0#"
00
b10000000000011110110111 1
b10000000000011110110111 @
b1 z
b10000000000011110110111 7
b10000000000011110110111 '"
b10011001101 ."
16
15
#1916636
06
05
#1958302
0>
b0 h
b0 i
b0x000000000 g
b0x000000000 8
b1111111111111111111111111110000 P
b1111111111111111111111111110 }
b0x000000000 1
b0x000000000 @
1'
b1 +
b1 2"
b1111111111111111111111111110 E
b111111111111111111111111111001 &"
03
14
b111111111111111111111111111001 -
b10000000000000000000000 C
b10000000000000000010000 c
b11111111111111111111111111011100 ^
b11111111111111111111111111100100 v
b11111111111111111111111111100100 2
b11111111111111111111111111100100 N
b11111111111111111111111111100100 ""
b11111111111111111111111111100100 ]
b100 _
b11111111111111111111111111100100 O
b100 F
0Z
1T
b10000000000000000000000 `
b100 k
b1111 a
b100000001110 m
b100 j
b0 H
b100 G
b1111 I
b0 [
b10011001100 ."
b10 z
b10000000000011110110111 w
16
15
#1999968
06
05
#2041634
1>
b11111111111111111111111110110111 h
b10110111 i
b11110110111 g
b0 8
1B
b10000000000011110110111 1
b10000000000011110110111 @
0'
b0 P
b1 &"
13
04
b1 -
1f
b0 E
b100 2
b100 N
b100 ""
1e
b100 v
b0 }
b0 D
b11 z
b100 O
b100 ]
b111111111111111111111111111111100 ^
b0 ?
b0 x
b10011001011 ."
16
15
#2083300
06
05
#2124966
0B
b101 &"
b101 -
b10100 2
b10100 N
b10100 ""
1#"
b11000 J
10
b10011001010 ."
b0 z
b10000000000000000010100 c
b11000 d
b10100 u
16
15
#2166632
06
05
#2208298
0>
b110111 h
b110111 i
b1010011100110111 g
0#"
00
b10100101101001011010011100110111 1
b10100101101001011010011100110111 @
b1 z
b10100101101001011010011100110111 7
b10100101101001011010011100110111 '"
b10011001001 ."
16
15
#2249964
06
05
#2291630
b0 i
b10010001101000000000000000000 9
b10010001101000000000000000000 6"
b0x000000000 8
0f
b0x000000000 1
b0x000000000 @
1'
b10 +
b10 2"
b0 g
0>
b111111111111111111111010010110 &"
03
14
b111111111111111111111010010110 -
b10100101101001011010000000010100 c
b10100101101001011010000000000000 C
b100000000000000000000010110100110 ^
b0x000000000 h
b1111 b
b11111111111111111111101001011010 2
b11111111111111111111101001011010 N
b11111111111111111111101001011010 ""
b11111111111111111111101001011010 ]
b11111111111111111111101001011010 _
b11111111111111111111101001011010 O
0M
b11010 F
b0 v
b10100101101001011010000000000000 `
b11111111111111111111101001011010 k
b11111111111111111111101001001110 a
b11111111111111111111001001001110 m
b11111111111101011010001001011010 j
b1011 H
b11010 G
b1110 I
b10 \
b1010010 [
b10011001000 ."
b10 z
b10100101101001011010011100110111 w
16
15
#2333296
06
05
#2374962
1B
b11 z
b10011000111 ."
16
15
#2416628
06
05
#2458294
1>
b10100101 i
b1010010110100101 g
b10100101101001011010011100110111 h
b0 8
b10100101101001011010011100110111 1
b10100101101001011010011100110111 @
1#"
0'
0B
b110 &"
13
04
b110 -
b11000 2
b11000 N
b11000 ""
b11100 J
10
b10011000110 ."
b0 z
b10100101101001011010000000011000 c
b11100 d
b11000 u
16
15
#2499960
06
05
#2541626
0>
b1010111 i
b101101001010111 g
b1011010010101110000011100010011 h
0#"
00
b1011010010101110000011100010011 1
b1011010010101110000011100010011 @
b1 z
b1011010010101110000011100010011 7
b1011010010101110000011100010011 '"
b10011000101 ."
16
15
#2583292
06
05
#2624958
b0 9
b0 6"
1f
b1 +
b1 2"
b11100010011 g
b111 i
b101101001 &"
b101101001 -
b1011010010101110000000000011000 c
b10110100101 C
b111111111111111111111101001011011 ^
b111 h
b10 b
b10110100101 2
b10110100101 N
b10110100101 ""
b10110100101 ]
b10110100101 _
b10110100101 O
1M
b101 F
b10110100101 v
1Z
0T
b1011010010101110000000000000000 `
b10110100101 k
b10110101110 a
b10110101110 m
b1110000110110100100 j
b1110 H
b101 G
b0 \
b101101 [
b10011000100 ."
b10 z
b1011010010101110000011100010011 w
16
15
#2666624
06
05
#2708290
b10100101101001011010010110100101 C
1B
b101101001011010010111111 P
b101001011010010110100101101001 &"
b101001011010010110100101101001 -
b11111101001011010010110100000000 E
b10100101101001011010010110100101 2
b10100101101001011010010110100101 N
b10100101101001011010010110100101 ""
0e
b10100101101001011010010110100101 v
b11111101001011010010110100000000 }
b10100101101001011010000000000000 D
b11 z
b10100101101001011010010110100101 O
b10100101101001011010010110100101 ]
b10100101101001011001101001011011 ^
b10100101101001011010000000000000 ?
b10100101101001011010000000000000 x
b10011000011 ."
16
15
#2749956
06
05
#2791622
b11 +
b11 2"
0B
b111 &"
b111 -
b11100 2
b11100 N
b11100 ""
1#"
b100000 J
10
b10011000010 ."
b0 z
b1011010010101110000000000011100 c
b100000 d
b11100 u
16
15
#2833288
06
05
#2874954
1>
b11111111111111111111111110100000 h
b10100000 i
b1010000000100011 g
0#"
00
b111001111010000000100011 1
b111001111010000000100011 @
b1 z
b111001111010000000100011 7
b111001111010000000100011 '"
b10011000001 ."
16
15
#2916620
06
05
#2958286
b1 C
b0 +
b0 2"
b100011 i
b1101001011010010100000000000000 P
b101001011010010110 }
b101001011010010110100000000000 &"
b101001011010010110100000000000 -
b10100101101001011001111111110010 ^
b111001111010000000100011 h
b1111 b
b101001011010010110 E
b11100 c
b10100101101001011010000000000000 2
b10100101101001011010000000000000 N
b10100101101001011010000000000000 ""
b10100101101001011010000000001110 ]
b1110 _
b10100101101001011010000000000000 O
0M
b1110 F
b1 v
0Z
1Q
b111001111010000000000000 `
b1110 k
b0 a
b0 m
b1111010000000001110 j
b1111 H
b1110 G
b0 I
b10 \
b0 [
b10011000000 ."
b10 z
b111001111010000000100011 w
16
15
#2999952
06
05
#3041618
0>
b0 i
b0 C
b0 g
b0 h
b0 1
b0 @
1'
b100000000000000000000000 P
b0 v
b10100101 ("
b100000000000000000000 &"
03
14
b100000000000000000000 -
0f
b100000000 E
b10100101101001011010010110100101 /
b10100101101001011010010110100101 K
b10100101101001011010010110100101 $"
b10100101101001011010010110100101 1"
b10000000000000000000000 2
b10000000000000000000000 N
b10000000000000000000000 ""
b100000000 }
b10000000000000000000000 D
b11 z
b10100101101001011010010110100101 y
b10000000000000000000000 O
b10000000000000000001110 ]
b1111111111111111110010 ^
b10000000000000000000000 ?
b10000000000000000000000 x
b10010111111 ."
16
15
#3083284
06
05
#3124950
b100100 J
1,
b1111 .
b1111 A
b10010111110 ."
b110 z
b100000 c
b100100 d
b100000 u
16
15
#3166616
06
05
#3208282
1>
b100011 i
b1010000000100011 g
b111001111010000000100011 h
1#"
0'
b111001111010000000100011 1
b111001111010000000100011 @
b1000 &"
13
04
b1000 -
b0 8
b100000 2
b100000 N
b100000 ""
10
0,
b0 .
b0 A
b10100101101001011010010110100101 9
b10100101101001011010010110100101 6"
b0 z
b10100101101001011010010110100101 3"
b10010111101 ."
16
15
#3249948
06
05
#3291614
0>
b10110111 i
b11110110111 g
b10000000000011110110111 h
0#"
b10000000000011110110111 1
b10000000000011110110111 @
00
b10010111100 ."
b10000000000011110110111 7
b10000000000011110110111 '"
b1 z
16
15
#3333280
06
05
#3374946
b0 i
b0 g
b0 9
b0 6"
b10000000000000 P
b1000000000000000000 }
b0 1
b0 @
1'
b1 +
b1 2"
b1000000000000000000 E
0>
b100000000000000000001 &"
03
14
b100000000000000000001 -
b10000000000000000000000 C
b1111111111111111111100 ^
b0 h
b1 b
b10000000000000000100000 c
b10000000000000000000100 2
b10000000000000000000100 N
b10000000000000000000100 ""
b10000000000000000000100 ]
b100 _
b10000000000000000000100 O
1M
b100 F
b10000000000000000000100 v
1T
0Q
b10000000000000000000000 `
b100 k
b1111 a
b100000001110 m
b100 j
b0 H
b100 G
b1111 I
b0 \
b10 z
b10000000000011110110111 w
b10010111011 ."
16
15
#3416612
06
05
#3458278
1>
b11111111111111111111111110110111 h
b10110111 i
b11110110111 g
1B
b10000000000011110110111 1
b10000000000011110110111 @
0'
b0 P
b0 ("
b1 &"
13
04
b1 -
1f
b0 E
b0 /
b0 K
b0 $"
b0 1"
b100 2
b100 N
b100 ""
1e
b100 v
b0 }
b0 D
b10010111010 ."
b11 z
b0 y
b100 O
b100 ]
b111111111111111111111111111111100 ^
b0 ?
b0 x
16
15
#3499944
06
05
#3541610
0B
b1001 &"
b1001 -
b100100 2
b100100 N
b100100 ""
1#"
b101000 J
10
b0 z
b10000000000000000100100 c
b101000 d
b100100 u
b10010111001 ."
16
15
#3583276
06
05
#3624942
b11111111111111111111111110010011 h
b10010011 i
b1000011110010011 g
0#"
b10001111000011110010011 1
b10001111000011110010011 @
00
b10010111000 ."
b10001111000011110010011 7
b10001111000011110010011 '"
b1 z
16
15
#3666608
06
05
#3708274
b1 &"
b1 -
b10001111000000000100100 c
b100 C
b100 2
b100 N
b100 ""
1Z
0T
b10001111000000000000000 `
b1111000000000000100 j
b1111 H
b10 z
b10001111000011110010011 w
b10010110111 ."
16
15
#3749940
06
05
#3791606
0>
b0 h
b0 i
b0 g
b10000000000000000000100 C
1B
b0 1
b0 @
1'
b10000000000000 P
b100000000000000000001 &"
03
14
b100000000000000000001 -
0f
b1000000000000000000 E
b10000000000000000000100 2
b10000000000000000000100 N
b10000000000000000000100 ""
0e
b10000000000000000000100 v
b1000000000000000000 }
b10000000000000000000000 D
b10010110110 ."
b11 z
b10000000000000000000100 O
b10000000000000000000100 ]
b1111111111111111111100 ^
b10000000000000000000000 ?
b10000000000000000000000 x
16
15
#3833272
06
05
#3874938
1>
b11111111111111111111111110010011 h
b10010011 i
b1000011110010011 g
b10010001101000000000000000000 9
b10010001101000000000000000000 6"
b10001111000011110010011 1
b10001111000011110010011 @
1#"
0'
b10 +
b10 2"
0B
b1010 &"
13
04
b1010 -
b101000 2
b101000 N
b101000 ""
b101100 J
10
b0 z
b10001111000000000101000 c
b101100 d
b101000 u
b10010110101 ."
16
15
#3916604
06
05
#3958270
0>
b110111 h
b110111 i
b11100110111 g
0#"
b10000011100110111 1
b10000011100110111 @
00
b10010110100 ."
b10000011100110111 7
b10000011100110111 '"
b1 z
16
15
#3999936
06
05
#4041602
1>
b11111111111111111111111110100101 h
b10100101 i
b1010010110100101 g
b10100101101001011010010110100101 8
b10100101101001011010010110100101 9
b10100101101001011010010110100101 6"
b1000000000 P
b10000000000000000000000 }
b10100101101001011010010110100101 1
b10100101101001011010010110100101 @
1'
b0 +
b0 2"
b10000000000000000000000 E
b100000000000000000000 &"
03
14
b100000000000000000000 -
b10000000000000000 C
b10000000000101000 c
b10000000000000000000000 ^
b10000000000000000000000 v
b10000000000000000000000 2
b10000000000000000000000 N
b10000000000000000000000 ""
b10000000000000000000000 ]
b0 _
b10000000000000000000000 O
b0 F
0Z
1T
b10000000000000000 `
b0 k
b1110 a
b1110 m
b10000000000000000 j
b10 H
b0 G
b1110 I
b10 z
b10000011100110111 w
b10010110011 ."
16
15
#4083268
06
05
#4124934
0>
b0 h
b0 i
b0x000000000 g
b0x000000000 1
b0x000000000 @
b0x000000000 8
1B
1f
b111111111111111111111111111 P
b111111111111111111111111111000 &"
b111111111111111111111111111000 -
b11111111111111111111111111100000 E
b11111111111111111111111111100000 2
b11111111111111111111111111100000 N
b11111111111111111111111111100000 ""
b11111111111111111111111111100000 v
b11111111111111111111111111100000 }
b11111111111111111111111111100000 D
b10010110010 ."
b11 z
b11111111111111111111111111100000 O
b11111111111111111111111111100000 ]
b11111111111111111111111111100000 ^
b11111111111111111111111111100000 ?
b11111111111111111111111111100000 x
16
15
#4166600
06
05
#4208266
b110111 h
b110111 i
b11100110111 g
b0 9
b0 6"
b0 8
b10000011100110111 1
b10000011100110111 @
1#"
0'
b11 +
b11 2"
0B
b1011 &"
13
04
b1011 -
b101100 2
b101100 N
b101100 ""
b110000 J
10
b0 z
b10000000000101100 c
b110000 d
b101100 u
b10010110001 ."
16
15
#4249932
06
05
#4291598
b10011 h
b10011 i
b11100010011 g
0#"
b11111111111101110000011100010011 1
b11111111111101110000011100010011 @
00
b10010110000 ."
b11111111111101110000011100010011 7
b11111111111101110000011100010011 '"
b1 z
16
15
#4333264
06
05
#4374930
0>
b0x000000000 8
b11111111111111111111111111111111 P
b11111111111111111111111111111111 }
b0 h
b1000 b
b0x000000000 1
b0x000000000 @
b11111111111111111111111111111111 E
1e
b0 g
b0 i
b111111111111111111111111110111 &"
03
14
b111111111111111111111111110111 -
b11111111111101110000000000101100 c
b11111111111111111111111111011111 C
b111111111111111111111111111100001 ^
b11111111111111111111111111011111 v
b11111111111111111111111111011111 2
b11111111111111111111111111011111 N
b11111111111111111111111111011111 ""
b11111111111111111111111111011111 ]
b11111111111111111111111111111111 _
b11111111111111111111111111011111 O
b11111 F
1Z
0T
b11111111111101110000000000000000 `
b11111111111111111111111111111111 k
b11111111111111111111111111101110 a
b11111111111111111111011111101110 m
b11111111111101110000111111111110 j
b1110 H
b11111 G
b1111111 [
b10 z
b11111111111101110000011100010011 w
b10010101111 ."
16
15
#4416596
06
05
#4458262
1>
b11111111111111111111111111111111 h
b11111111 i
b1111111111110111 g
b1111111111111111 C
1B
b11111111111101110000011100010011 1
b11111111111101110000011100010011 @
0f
b0 P
b11111111111111 &"
13
04
b11111111111111 -
b0 E
b1111111111111111 2
b1111111111111111 N
b1111111111111111 ""
b1111111111111111 v
b0 }
b10000000000000000 D
b10010101110 ."
b11 z
b1111111111111111 O
b1111111111111111 ]
b100000000000000010000000000000001 ^
b10000000000000000 ?
b10000000000000000 x
16
15
#4499928
06
05
#4541594
b10100101101001011010010110100101 9
b10100101101001011010010110100101 6"
b0 8
b0 +
b0 2"
0B
b1100 &"
b1100 -
b110000 2
b110000 N
b110000 ""
1#"
b110100 J
10
b0 z
b11111111111101110000000000110000 c
b110100 d
b110000 u
b10010101101 ."
16
15
#4583260
06
05
#4624926
0>
b0 h
b0 i
b11100111 g
0#"
b111001111010000000100011 1
b111001111010000000100011 @
00
b10010101100 ."
b111001111010000000100011 7
b111001111010000000100011 '"
b1 z
16
15
#4666592
06
05
#4708258
1>
b0 C
b100000000000000000000000000000 P
b100 }
b100 E
0e
b1010000000100011 g
b100011 i
b100000000000000 &"
b100000000000000 -
b1111111111110010 ^
b111001111010000000100011 h
b1111 b
b110000 c
b10000000000000000 2
b10000000000000000 N
b10000000000000000 ""
b10000000000001110 ]
b1110 _
b10000000000000000 O
0M
b1110 F
b0 v
0Z
1Q
b111001111010000000000000 `
b1110 k
b0 a
b0 m
b1111010000000001110 j
b1111 H
b1110 G
b0 I
b10 \
b0 [
b10 z
b111001111010000000100011 w
b10010101011 ."
16
15
#4749924
06
05
#4791590
0>
b0 i
b0 g
b0 h
b0 9
b0 6"
b0 1
b0 @
1'
b1 +
b1 2"
b100000000000000000000000 P
b11111111 ("
b100000000000000000001 &"
03
14
b100000000000000000001 -
b100000000 E
b1111111111111111 /
b1111111111111111 K
b1111111111111111 $"
b1111111111111111 1"
b10000000000000000000100 2
b10000000000000000000100 N
b10000000000000000000100 ""
b100000000 }
b10000000000000000000100 D
b10010101010 ."
b11 z
b1111111111111111 y
b10000000000000000000100 O
b10000000000000000010010 ]
b1111111111111111110110 ^
b10000000000000000000100 ?
b10000000000000000000100 x
16
15
#4833256
06
05
#4874922
b111000 J
1,
b1111 .
b1111 A
b110 z
b110100 c
b111000 d
b110100 u
b10010101001 ."
16
15
#4916588
06
05
#4958254
1>
b100011 i
b1010000000100011 g
b111001111010000000100011 h
b111001111010000000100011 1
b111001111010000000100011 @
1#"
0'
b0 8
b1101 &"
13
04
b1101 -
b110100 2
b110100 N
b110100 ""
b1111111111111111 9
b1111111111111111 6"
b10010001101001010010110100101 5"
10
0,
b0 .
b0 A
b10010101000 ."
b1111111111111111 4"
b0 z
16
15
#4999920
06
05
#5041586
0>
b10110111 i
b11110110111 g
b10000000000011110110111 h
0#"
00
b10000000000011110110111 1
b10000000000011110110111 @
b1 z
b10000000000011110110111 7
b10000000000011110110111 '"
b10010100111 ."
16
15
#5083252
06
05
