TASK - 2/RTL/waves.vcd
$date
	Sun Mar 29 19:21:26 2026
$end
$version
	Icarus Verilog
$end
$timescale
	1ps
$end
$scope module SOC_IP_tb $end
$var wire 1 ! TXD $end
$var wire 5 " LEDS [4:0] $end
$var reg 1 # RESET $end
$var reg 1 $ RXD $end
$scope module uut $end
$var wire 1 % GPIO_sel $end
$var wire 1 # RESET $end
$var wire 1 $ RXD $end
$var wire 1 & uart_valid $end
$var wire 1 ' uart_ready $end
$var wire 1 ( resetn $end
$var wire 1 ) mem_wstrb $end
$var wire 30 * mem_wordaddr [29:0] $end
$var wire 4 + mem_wmask [3:0] $end
$var wire 32 , mem_wdata [31:0] $end
$var wire 1 - mem_rstrb $end
$var wire 32 . mem_rdata [31:0] $end
$var wire 32 / mem_addr [31:0] $end
$var wire 1 0 isRAM $end
$var wire 1 1 isIO $end
$var wire 1 2 clk_int $end
$var wire 1 3 clk $end
$var wire 1 ! TXD $end
$var wire 32 4 RAM_rdata [31:0] $end
$var wire 32 5 IO_rdata [31:0] $end
$var wire 32 6 GPIO_rdata [31:0] $end
$var parameter 32 7 GPIO_IP_bit $end
$var parameter 32 8 IO_LEDS_bit $end
$var parameter 32 9 IO_UART_CNTL_bit $end
$var parameter 32 : IO_UART_DAT_bit $end
$var reg 5 ; LEDS [4:0] $end
$scope module CPU $end
$var wire 1 < LOAD_sign $end
$var wire 32 = aluIn1 [31:0] $end
$var wire 32 > mem_rdata [31:0] $end
$var wire 1 - mem_rstrb $end
$var wire 4 ? mem_wmask [3:0] $end
$var wire 1 @ writeBackEn $end
$var wire 32 A writeBackData [31:0] $end
$var wire 32 B shifter_in [31:0] $end
$var wire 32 C shifter [31:0] $end
$var wire 5 D shamt [4:0] $end
$var wire 5 E rs2Id [4:0] $end
$var wire 5 F rs1Id [4:0] $end
$var wire 1 ( resetn $end
$var wire 5 G rdId [4:0] $end
$var wire 32 H nextPC [31:0] $end
$var wire 32 I mem_wdata [31:0] $end
$var wire 1 J mem_halfwordAccess $end
$var wire 1 K mem_byteAccess $end
$var wire 32 L mem_addr [31:0] $end
$var wire 32 M loadstore_addr [31:0] $end
$var wire 32 N leftshift [31:0] $end
$var wire 1 O isStore $end
$var wire 1 P isSYSTEM $end
$var wire 1 Q isLoad $end
$var wire 1 R isLUI $end
$var wire 1 S isJALR $end
$var wire 1 T isJAL $end
$var wire 1 U isBranch $end
$var wire 1 V isAUIPC $end
$var wire 1 W isALUreg $end
$var wire 1 X isALUimm $end
$var wire 7 Y funct7 [6:0] $end
$var wire 3 Z funct3 [2:0] $end
$var wire 1 3 clk $end
$var wire 32 [ aluPlus [31:0] $end
$var wire 33 \ aluMinus [32:0] $end
$var wire 32 ] aluIn2 [31:0] $end
$var wire 32 ^ Uimm [31:0] $end
$var wire 32 _ Simm [31:0] $end
$var wire 4 ` STORE_wmask [3:0] $end
$var wire 32 a PCplusImm [31:0] $end
$var wire 32 b PCplus4 [31:0] $end
$var wire 1 c LTU $end
$var wire 1 d LT $end
$var wire 16 e LOAD_halfword [15:0] $end
$var wire 32 f LOAD_data [31:0] $end
$var wire 8 g LOAD_byte [7:0] $end
$var wire 32 h Jimm [31:0] $end
$var wire 32 i Iimm [31:0] $end
$var wire 1 j EQ $end
$var wire 32 k Bimm [31:0] $end
$var parameter 32 l EXECUTE $end
$var parameter 32 m FETCH_INSTR $end
$var parameter 32 n FETCH_REGS $end
$var parameter 32 o LOAD $end
$var parameter 32 p STORE $end
$var parameter 32 q WAIT_DATA $end
$var parameter 32 r WAIT_INSTR $end
$var reg 32 s PC [31:0] $end
$var reg 32 t aluOut [31:0] $end
$var reg 32 u instr [31:0] $end
$var reg 32 v rs1 [31:0] $end
$var reg 32 w rs2 [31:0] $end
$var reg 3 x state [2:0] $end
$var reg 1 y takeBranch $end
$var integer 32 z i [31:0] $end
$scope function flip32 $end
$var reg 32 { x [31:0] $end
$upscope $end
$upscope $end
$scope module CW $end
$var wire 1 # RESET $end
$var wire 1 ( resetn $end
$var wire 1 3 clk $end
$var wire 1 2 CLK $end
$var parameter 32 | SLOW $end
$scope begin genblk1 $end
$var reg 2 } reset_cnt [1:0] $end
$upscope $end
$upscope $end
$scope module GPIO $end
$var wire 32 ~ IP_rdata [31:0] $end
$var wire 1 % IP_sel $end
$var wire 32 !" IP_wdata [31:0] $end
$var wire 1 3 clk $end
$var wire 1 ( rst $end
$var wire 1 ) wen $end
$var reg 32 "" GPIO_reg [31:0] $end
$upscope $end
$scope module RAM $end
$var wire 1 3 clk $end
$var wire 32 #" mem_addr [31:0] $end
$var wire 1 $" mem_rstrb $end
$var wire 32 %" mem_wdata [31:0] $end
$var wire 4 &" mem_wmask [3:0] $end
$var wire 30 '" word_addr [29:0] $end
$var reg 32 (" mem_rdata [31:0] $end
$upscope $end
$scope module UART $end
$var wire 1 3 i_clk $end
$var wire 8 )" i_data [7:0] $end
$var wire 1 *" i_rst $end
$var wire 1 & i_valid $end
$var wire 1 ! o_uart_tx $end
$var parameter 64 +" START_VALUE $end
$var parameter 32 ," WIDTH $end
$var parameter 32 -" baud_rate $end
$var parameter 64 ." clk_freq_hz $end
$var reg 12 /" cnt [11:0] $end
$var reg 10 0" data [9:0] $end
$var reg 1 ' o_ready $end
$upscope $end
$scope module hfosc $end
$var wire 1 1" CLKHFEN $end
$var wire 1 2" CLKHFPU $end
$var parameter 32 3" CLKHF_DIV $end
$var reg 1 2 CLKHF $end
$upscope $end
$upscope $end
$upscope $end
$enddefinitions $end
$comment Show the parameter values. $end
$dumpall
b110000011000100011000100110000 3"
b101101110001101100000000 ."
b10010110000000 -"
b1011 ,"
b10011100010 +"
b0 |
b1 r
b101 q
b110 p
b100 o
b10 n
b0 m
b11 l
b1 :
b10 9
b0 8
b11 7
$end
#0
$dumpvars
12"
11"
bx 0"
b0 /"
1*"
bx )"
bx ("
b0 '"
b0 &"
bx %"
1$"
b0 #"
bx ""
bx !"
bx ~
b0 }
bx {
b100000 z
xy
b0 x
bx w
bx v
bx u
bx t
b0 s
bx0 k
xj
bx i
bx0 h
bx g
bx f
bx e
xd
xc
b100 b
bx a
bx `
bx _
bx000000000000 ^
bx ]
bx \
bx [
bx Z
bx Y
xX
xW
xV
xU
xT
xS
xR
xQ
xP
xO
bx N
bx M
b0 L
xK
xJ
bx I
bx H
bx G
bx F
bx E
bx D
bx C
bx B
bx A
0@
b0 ?
bx >
bx =
x<
bx ;
bx 6
b0 5
bx 4
03
02
01
10
b0 /
bx .
1-
bx ,
b0 +
b0 *
0)
0(
x'
0&
0%
1$
1#
bx "
x!
$end
#41666
bx000x00x1 e
b11111110000000010000000100010011 .
b11111110000000010000000100010011 >
b11111110000000010000000100010011 4
b11111110000000010000000100010011 ("
b0 6
b0 ~
b0 ""
b111111111111 /"
13
12
#50000
0#
#83332
03
02
#124998
b0xxxxxxxxx 0"
b10011100010 /"
b1 }
13
12
#166664
03
02
#208330
b10011100001 /"
b10 }
13
12
#249996
03
02
#291662
b10011100000 /"
0*"
1(
b11 }
13
12
#333328
03
02
#374994
0$"
0-
b1 x
b10011011111 /"
13
12
#416660
03
02
#458326
bx000x00xx e
b0x000000000 5
bx00000000x000000xx000x00xx .
bx00000000x000000xx000x00xx >
x%
bx '"
x0
x1
bx *
b11111111111111111111111111100000 ]
b100 H
bx /
bx L
bx #"
1K
0J
b0 D
b11111110000000010000000000000000 a
0W
1X
0U
0S
0T
0V
0R
0Q
0O
0P
b11111110000000010000000000000000 ^
b11111111111111111111111111100000 i
b11111111111111111111111111100010 _
b11111111111111111111011111100010 k
b11111111111100010000011111100000 h
b10 F
b0 E
b10 G
b0 Z
b1111111 Y
b10011011110 /"
b10 x
b11111110000000010000000100010011 u
13
12
#499992
03
02
#541658
0<
b11111111111111111111111111100000 A
b0 5
1@
b0 f
b1 `
b0 .
b0 >
1%
0d
b0 N
b0 )"
b0 e
b0 g
b111111111111111111111111111000 '"
00
11
b111111111111111111111111111000 *
0y
b0 C
b0 ,
b0 I
b0 !"
b0 %"
b11111111111111111111111111100000 /
b11111111111111111111111111100000 L
b11111111111111111111111111100000 #"
1c
0j
b11111111111111111111111111100000 t
b0 {
b0 B
b11 x
b0 w
b11111111111111111111111111100000 M
b11111111111111111111111111100000 [
b100000000000000000000000000100000 \
b0 =
b0 v
b10011011101 /"
13
12
#583324
03
02
#624990
b10011 f
b10011 g
b100010011 e
b11111110000000010000000100010011 .
b11111110000000010000000100010011 >
1$"
0%
0@
b1 '"
10
01
b1 *
b100 /
b100 L
b100 #"
b1000 H
1-
b10011011100 /"
b0 x
b11111110000000010000000000000100 a
b1000 b
b100 s
13
12
#666656
03
02
#708322
b100011 f
b100011 g
b10111000100011 e
0$"
0-
b100010010111000100011 .
b100010010111000100011 >
b1 x
b100010010111000100011 4
b100010010111000100011 ("
b10011011011 /"
13
12
#749988
03
02
#791654
b0x000000000 5
b1 A
1d
b111 '"
b111 *
b111111111111111111111111111111111 \
b100010010111000100011 f
b1111 `
b100000 a
b11100 /
b11100 L
b11100 #"
b1 [
b1 ]
b11100 M
0K
b1 D
b1 t
0X
1O
b100010010000000000000 ^
b1 i
b11100 _
b11100 k
b10010100000000000 h
b1 E
b11100 G
b10 Z
b0 Y
b10011011010 /"
b10 x
b100010010111000100011 u
13
12
#833320
03
02
#874986
b0 g
b0x000000000 e
b0x000000000 f
b0x000000000 .
b0x000000000 >
1%
b1111111111111111111111111110 N
b111111111111111111111111111111 '"
00
11
b111111111111111111111111111111 *
b1111111111111111111111111110000 C
b11111111111111111111111111111100 /
b11111111111111111111111111111100 L
b11111111111111111111111111111100 #"
0c
b1111111111111111111111111110000 {
b11111111111111111111111111100000 B
b11 x
b11111111111111111111111111111100 M
b11111111111111111111111111100001 [
b11111111111111111111111111011111 \
b11111111111111111111111111100000 =
b11111111111111111111111111100000 v
b10011011001 /"
13
12
#916652
03
02
#958318
1&
b1100 H
1)
b1111 +
b1111 ?
b10011011000 /"
b110 x
b100100 a
b1100 b
b1000 s
13
12
#999984
03
02
#1041650
b100011 g
b10111000100011 e
b100010010111000100011 f
b0 5
b100010010111000100011 .
b100010010111000100011 >
1$"
0%
b10 '"
10
01
b10 *
0&
b1000 /
b1000 L
b1000 #"
1-
0)
b0 +
b0 ?
b0 x
b10011010111 /"
b0 "
b0 ;
13
12
#1083316
03
02
#1124982
b10110000100011 e
b100000010010110000100011 f
0$"
b100000010010110000100011 .
b100000010010110000100011 >
0-
b10011010110 /"
b100000010010110000100011 4
b100000010010110000100011 ("
b1 x
13
12
#1166648
03
02
#1208314
b0 g
b0x000000000 e
b0x000000000 f
b0x000000000 5
b11111111111111111111111100000000 N
b111111111111111111111111 {
b0x000000000 .
b0x000000000 >
1%
b111111111111111111111111 C
b111111111111111111111111111110 '"
00
11
b111111111111111111111111111110 *
b11111111111111111111111111011000 \
b100000 a
b11111111111111111111111111111000 /
b11111111111111111111111111111000 L
b11111111111111111111111111111000 #"
b11111111111111111111111111101000 [
b1000 ]
b11111111111111111111111111111000 M
b1000 D
b100000010010000000000000 ^
b1000 i
b11000 _
b11000 k
b10010000000001000 h
b1000 E
b11000 G
b10 x
b100000010010110000100011 u
b10011010101 /"
13
12
#1249980
03
02
#1291646
b10011010100 /"
b11 x
13
12
#1333312
03
02
#1374978
1&
b10000 H
1)
b1111 +
b1111 ?
b110 x
b100100 a
b10000 b
b1100 s
b10011010011 /"
13
12
#1416644
03
02
#1458310
b100011 g
b10110000100011 e
b100000010010110000100011 f
b0 5
b100000010010110000100011 .
b100000010010110000100011 >
1$"
0%
b11 '"
10
01
b11 *
0&
b1100 /
b1100 L
b1100 #"
1-
0)
b0 +
b0 ?
b10011010010 /"
b0 x
13
12
#1499976
03
02
#1541642
b10011 g
b10000010011 e
b10000000010000010000010011 f
0$"
0-
b10000000010000010000010011 .
b10000000010000010000010011 >
b1 x
b10000000010000010000010011 4
b10000000010000010000010011 ("
b10011010001 /"
13
12
#1583308
03
02
#1624974
b0 A
b111111111111111111111111111 N
b11111111111111111111111111100000 {
b11111111111111111111111111100000 C
b0 '"
b0 *
b11111111111111111111111111000000 \
b10011 f
b1 `
b10000000010000000000001100 a
b0 /
b0 L
b0 #"
b0 [
b100000 ]
b0 M
1K
b0 D
b0 t
1X
0O
b10000000010000000000000000 ^
b100000 i
b101000 _
b101000 k
b10000000000100000 h
b0 E
b1000 G
b0 Z
b1 Y
b10011010000 /"
b10 x
b10000000010000010000010011 u
13
12
#1666640
03
02
#1708306
1@
b11 x
b10011001111 /"
13
12
#1749972
03
02
#1791638
b0x000000000 5
0@
b100 '"
b100 *
b10000 /
b10000 L
b10000 #"
1$"
b10100 H
1-
b10011001110 /"
b0 x
b10000000010000000000010000 a
b10100 b
b10000 s
13
12
#1833304
03
02
#1874970
1<
b11111111111111111111111110110111 f
b10110111 g
b11110110111 e
0$"
0-
b10000000000011110110111 .
b10000000000011110110111 >
b1 x
b10000000000011110110111 4
b10000000000011110110111 ("
b10011001101 /"
13
12
#1916636
03
02
#1958302
0<
b0 f
b0 g
b0 e
b0 5
b1111111111111111111111111110000 N
b1111111111111111111111111110 {
b0 .
b0 >
1%
b1111111111111111111111111110 C
b111111111111111111111111111001 '"
00
11
b111111111111111111111111111001 *
b10000000000000000000000 A
b10000000000000000010000 a
b11111111111111111111111111011100 \
b11111111111111111111111111100100 t
b11111111111111111111111111100100 /
b11111111111111111111111111100100 L
b11111111111111111111111111100100 #"
b11111111111111111111111111100100 [
b100 ]
b11111111111111111111111111100100 M
b100 D
0X
1R
b10000000000000000000000 ^
b100 i
b1111 _
b100000001110 k
b100 h
b0 F
b100 E
b1111 G
b0 Y
b10011001100 /"
b10 x
b10000000000011110110111 u
13
12
#1999968
03
02
#2041634
1<
b11111111111111111111111110110111 f
b10110111 g
b11110110111 e
1@
b10000000000011110110111 .
b10000000000011110110111 >
0%
b0 N
b1 '"
10
01
b1 *
1d
b0 C
b100 /
b100 L
b100 #"
1c
b100 t
b0 {
b0 B
b11 x
b100 M
b100 [
b111111111111111111111111111111100 \
b0 =
b0 v
b10011001011 /"
13
12
#2083300
03
02
#2124966
b0x000000000 5
0@
b101 '"
b101 *
b10100 /
b10100 L
b10100 #"
1$"
b11000 H
1-
b10011001010 /"
b0 x
b10000000000000000010100 a
b11000 b
b10100 s
13
12
#2166632
03
02
#2208298
b11111111111111111111111110010011 f
b10010011 g
b1000011110010011 e
0$"
0-
b10000001111000011110010011 .
b10000001111000011110010011 >
b1 x
b10000001111000011110010011 4
b10000001111000011110010011 ("
b10011001001 /"
13
12
#2249964
03
02
#2291630
b0 5
b1000 '"
b1000 *
b10000001111000000000010100 a
b100000 A
b111111111111111111111111111100000 \
b100000 t
b100000 /
b100000 L
b100000 #"
b100000 [
b100000 ]
b100000 M
b0 D
1X
0R
b10000001111000000000000000 ^
b100000 i
b101111 _
b100000101110 k
b1111000000000100000 h
b1111 F
b0 E
b1 Y
b10011001000 /"
b10 x
b10000001111000011110010011 u
13
12
#2333296
03
02
#2374962
0<
b0 f
b0 g
b0 e
b10000000000000000100000 A
1@
b0 .
b0 >
1%
b1000000000 N
b100000000000000001000 '"
00
11
b100000000000000001000 *
0d
b10000000000000000000000 C
b10000000000000000100000 /
b10000000000000000100000 L
b10000000000000000100000 #"
0c
b10000000000000000100000 t
b10000000000000000000000 {
b10000000000000000000000 B
b11 x
b10000000000000000100000 M
b10000000000000000100000 [
b1111111111111111100000 \
b10000000000000000000000 =
b10000000000000000000000 v
b10011000111 /"
13
12
#2416628
03
02
#2458294
1<
b11111111111111111111111110010011 f
b10010011 g
b1000011110010011 e
b0x000000000 5
b10000001111000011110010011 .
b10000001111000011110010011 >
1$"
0%
0@
b110 '"
10
01
b110 *
b11000 /
b11000 L
b11000 #"
b11100 H
1-
b10011000110 /"
b0 x
b10000001111000000000011000 a
b11100 b
b11000 s
13
12
#2499960
03
02
#2541626
0<
b110111 f
b110111 g
b1110011100110111 e
0$"
0-
b11011110101011011110011100110111 .
b11011110101011011110011100110111 >
b1 x
b11011110101011011110011100110111 4
b11011110101011011110011100110111 ("
b10011000101 /"
13
12
#2583292
03
02
#2624958
b10101101 g
b0 5
b10000000000000000000 N
b1000000000000 {
1y
b1000000000000 C
1c
b1101111010101101 e
b11111111111101111010 '"
b11111111111101111010 *
b11011110101011011110000000000000 A
b11011110101011011110000000011000 a
b100000000010000000000001000010110 \
b11111111111111111111110111101010 t
b11011110101011011110011100110111 f
b1111 `
b1111111111110111101010 /
b1111111111110111101010 L
b1111111111110111101010 #"
b1111111111110111101010 [
b11111111111111111111110111101010 ]
b1111111111110111101010 M
0K
b1010 D
0X
1R
b11011110101011011110000000000000 ^
b11111111111111111111110111101010 i
b11111111111111111111110111101110 _
b11111111111111111111010111101110 k
b11111111111111011110010111101010 h
b11011 F
b1010 E
b1110 G
b110 Z
b1101111 Y
b10011000100 /"
b10 x
b11011110101011011110011100110111 u
13
12
#2666624
03
02
#2708290
b0 g
b0 e
b0 f
1@
b0 .
b0 >
1%
b0 N
b111111111111111111111101111010 '"
00
11
b111111111111111111111101111010 *
b0 C
b11111111111111111111110111101010 /
b11111111111111111111110111101010 L
b11111111111111111111110111101010 #"
b0 {
b0 B
b11 x
b11111111111111111111110111101010 M
b11111111111111111111110111101010 [
b100000000000000000000001000010110 \
b0 =
b0 v
b10011000011 /"
13
12
#2749956
03
02
#2791622
b10101101 g
b1101111010101101 e
b11011110101011011110011100110111 f
b0x000000000 5
b11011110101011011110011100110111 .
b11011110101011011110011100110111 >
1$"
0%
0@
b111 '"
10
01
b111 *
b11100 /
b11100 L
b11100 #"
b100000 H
1-
b10011000010 /"
b0 x
b11011110101011011110000000011100 a
b100000 b
b11100 s
13
12
#2833288
03
02
#2874954
b110111 g
b1001000110111 e
b10010001101110000011100010011 f
0$"
0-
b10010001101110000011100010011 .
b10010001101110000011100010011 >
b1 x
b10010001101110000011100010011 4
b10010001101110000011100010011 ("
b10011000001 /"
13
12
#2916620
03
02
#2958286
b0 5
1d
b10010 g
b1001000 '"
b1001000 *
b10010001101110000000000011100 a
b100100011 A
b111111111111111111111111011011101 \
b100100011 t
b10010 f
b1000 `
b100100011 /
b100100011 L
b100100011 #"
b100100011 [
b100100011 ]
b100100011 M
1K
0y
b11 D
1X
0R
b10010001101110000000000000000 ^
b100100011 i
b100101110 _
b100101110 k
b1110000100100100010 h
b1110 F
b11 E
b0 Z
b1001 Y
b10011000000 /"
b10 x
b10010001101110000011100010011 u
13
12
#2999952
03
02
#3041618
b11011110101011011110000100100011 A
1@
b1111011010101111011000 N
b110111101010110111100001001000 '"
b110111101010110111100001001000 *
b11011110101011011110000000000 C
b11011110101011011110000100100011 /
b11011110101011011110000100100011 L
b11011110101011011110000100100011 #"
0c
b11011110101011011110000100100011 t
b11011110101011011110000000000 {
b11011110101011011110000000000000 B
b11 x
b11011110101011011110000100100011 M
b11011110101011011110000100100011 [
b11011110101011011101111011011101 \
b11011110101011011110000000000000 =
b11011110101011011110000000000000 v
b10010111111 /"
13
12
#3083284
03
02
#3124950
0@
b1000 '"
b1000 *
b100000 /
b100000 L
b100000 #"
1$"
b100100 H
1-
b10010111110 /"
b0 x
b10010001101110000000000100000 a
b100100 b
b100000 s
13
12
#3166616
03
02
#3208282
b0 f
b0 g
b11100111 e
0$"
0-
b111001111010000000100011 .
b111001111010000000100011 >
b1 x
b111001111010000000100011 4
b111001111010000000100011 ("
b10010111101 /"
13
12
#3249948
03
02
#3291614
1<
b1 A
b11101101010111101100000000000000 N
b110111101010110111 {
b110111101010110111 C
b1010000000100011 e
b100011 g
b110111101010110111100000000000 '"
b110111101010110111100000000000 *
b11011110101011011101111111110010 \
b111001111010000000100011 f
b1111 `
b100000 a
b11011110101011011110000000000000 /
b11011110101011011110000000000000 L
b11011110101011011110000000000000 #"
b11011110101011011110000000001110 [
b1110 ]
b11011110101011011110000000000000 M
0K
b1110 D
b1 t
0X
1O
b111001111010000000000000 ^
b1110 i
b0 _
b0 k
b1111010000000001110 h
b1111 F
b1110 E
b0 G
b10 Z
b0 Y
b10010111100 /"
b10 x
b111001111010000000100011 u
13
12
#3333280
03
02
#3374946
0<
b0 g
b0 A
b0 e
b0 f
b0 .
b0 >
1%
b100000000000000000000000 N
b0 t
b100011 )"
b100000000000000001000 '"
00
11
b100000000000000001000 *
0d
b100000000 C
b11011110101011011110000100100011 ,
b11011110101011011110000100100011 I
b11011110101011011110000100100011 !"
b11011110101011011110000100100011 %"
b10000000000000000100000 /
b10000000000000000100000 L
b10000000000000000100000 #"
b100000000 {
b10000000000000000100000 B
b11 x
b11011110101011011110000100100011 w
b10000000000000000100000 M
b10000000000000000101110 [
b10000000000000000010010 \
b10000000000000000100000 =
b10000000000000000100000 v
b10010111011 /"
13
12
#3416612
03
02
#3458278
b101000 H
1)
b1111 +
b1111 ?
b10010111010 /"
b110 x
b100100 a
b101000 b
b100100 s
13
12
#3499944
03
02
#3541610
1<
b100011 g
b1010000000100011 e
b111001111010000000100011 f
1$"
0%
b1001 '"
10
01
b1001 *
b111001111010000000100011 .
b111001111010000000100011 >
b100100 /
b100100 L
b100100 #"
b0 5
1-
0)
b0 +
b0 ?
b0 x
b11011110101011011110000100100011 6
b11011110101011011110000100100011 ~
b11011110101011011110000100100011 ""
b10010111001 /"
13
12
#3583276
03
02
#3624942
0<
b10110111 g
b11110110111 e
b10000000000011110110111 f
0$"
b10000000000011110110111 .
b10000000000011110110111 >
0-
b10010111000 /"
b10000000000011110110111 4
b10000000000011110110111 ("
b1 x
13
12
#3666608
03
02
#3708274
b100011 g
b1110000100100011 e
b11011110101011011110000100100011 5
b1000000000000000010000000000000 N
b1000000000000000010 {
b11011110101011011110000100100011 .
b11011110101011011110000100100011 >
1%
b1000000000000000010 C
0<
b100000000000000001001 '"
00
11
b100000000000000001001 *
b10000000000000000000000 A
b10000000000000000011100 \
b100011 f
b1 `
b10000000000000000100100 a
b10000000000000000100100 /
b10000000000000000100100 L
b10000000000000000100100 #"
b10000000000000000100100 [
b100 ]
b10000000000000000100100 M
1K
b100 D
b10000000000000000100100 t
1R
0O
b10000000000000000000000 ^
b100 i
b1111 _
b100000001110 k
b100 h
b0 F
b100 E
b1111 G
b0 Z
b10 x
b10000000000011110110111 u
b10010110111 /"
13
12
#3749940
03
02
#3791606
1<
b11111111111111111111111110110111 f
b10110111 g
b11110110111 e
b0 5
1@
b10000000000011110110111 .
b10000000000011110110111 >
0%
b0 N
b0 )"
b1 '"
10
01
b1 *
1d
b0 C
b0 ,
b0 I
b0 !"
b0 %"
b100 /
b100 L
b100 #"
1c
b100 t
b0 {
b0 B
b10010110110 /"
b11 x
b0 w
b100 M
b100 [
b111111111111111111111111111111100 \
b0 =
b0 v
13
12
#3833272
03
02
#3874938
0@
b1010 '"
b1010 *
b101000 /
b101000 L
b101000 #"
1$"
b101100 H
1-
b0 x
b10000000000000000101000 a
b101100 b
b101000 s
b10010110101 /"
13
12
#3916604
03
02
#3958270
b11111111111111111111111110010011 f
b10010011 g
b1000011110010011 e
0$"
b10000001111000011110010011 .
b10000001111000011110010011 >
0-
b10010110100 /"
b10000001111000011110010011 4
b10000001111000011110010011 ("
b1 x
13
12
#3999936
03
02
#4041602
b1000 '"
b1000 *
b10000001111000000000101000 a
b100000 A
b111111111111111111111111111100000 \
b100000 t
b100000 /
b100000 L
b100000 #"
b100000 [
b100000 ]
b100000 M
b0 D
1X
0R
b10000001111000000000000000 ^
b100000 i
b101111 _
b100000101110 k
b1111000000000100000 h
b1111 F
b0 E
b1 Y
b10 x
b10000001111000011110010011 u
b10010110011 /"
13
12
#4083268
03
02
#4124934
0<
b100011 f
b100011 g
b1110000100100011 e
b11011110101011011110000100100011 5
b10000000000000000100000 A
1@
b11011110101011011110000100100011 .
b11011110101011011110000100100011 >
1%
b1000000000 N
b100000000000000001000 '"
00
11
b100000000000000001000 *
0d
b10000000000000000000000 C
b10000000000000000100000 /
b10000000000000000100000 L
b10000000000000000100000 #"
0c
b10000000000000000100000 t
b10000000000000000000000 {
b10000000000000000000000 B
b10010110010 /"
b11 x
b10000000000000000100000 M
b10000000000000000100000 [
b1111111111111111100000 \
b10000000000000000000000 =
b10000000000000000000000 v
13
12
#4166600
03
02
#4208266
1<
b11111111111111111111111110010011 f
b10010011 g
b1000011110010011 e
b0 5
b10000001111000011110010011 .
b10000001111000011110010011 >
1$"
0%
0@
b1011 '"
10
01
b1011 *
b101100 /
b101100 L
b101100 #"
b110000 H
1-
b0 x
b10000001111000000000101100 a
b110000 b
b101100 s
b10010110001 /"
13
12
#4249932
03
02
#4291598
b11111111111111111111111110000011 f
b10000011 g
b1010011110000011 e
0$"
b1111010011110000011 .
b1111010011110000011 >
0-
b10010110000 /"
b1111010011110000011 4
b1111010011110000011 ("
b1 x
13
12
#4333264
03
02
#4374930
0<
b0 g
b0 e
b0 A
b0 .
b0 >
b100000000000000000000 '"
00
11
b100000000000000000000 *
b10000000000000000000000 \
b0 f
b1111 `
b100000111010 a
b10000000000000000000000 /
b10000000000000000000000 L
b10000000000000000000000 #"
b10000000000000000000000 [
b0 ]
b10000000000000000000000 M
0K
b0 t
0X
1Q
b1111010000000000000 ^
b0 i
b1111 _
b100000001110 k
b1111010000000000000 h
b10 Z
b0 Y
b10 x
b1111010011110000011 u
b10010101111 /"
13
12
#4416596
03
02
#4458262
b11011110101011011110000100100011 A
1<
b100011 g
b1110000100100011 e
b11011110101011011110000100100011 f
b11011110101011011110000100100011 .
b11011110101011011110000100100011 >
b11011110101011011110000100100011 5
1%
1@
b100000000000000001000000000 N
b100000000000000001000 '"
b100000000000000001000 *
b10000000000000000100000 C
b10000000000000000100000 /
b10000000000000000100000 L
b10000000000000000100000 #"
b10000000000000000100000 {
b10000000000000000100000 B
b10010101110 /"
b11 x
b10000000000000000100000 M
b10000000000000000100000 [
b10000000000000000100000 \
b10000000000000000100000 =
b10000000000000000100000 v
13
12
#4499928
03
02
#4541594
0@
b110100 H
1-
b100 x
b100000111110 a
b110100 b
b110000 s
b10010101101 /"
13
12
#4583260
03
02
#4624926
1@
0-
b10010101100 /"
b101 x
13
12
#4666592
03
02
#4708258
b1111010011110000011 A
b10000011 g
b1010011110000011 e
b1111010011110000011 f
b0x000000000 5
b1111010011110000011 .
b1111010011110000011 >
1$"
0%
b1100 '"
10
01
b1100 *
b110000 /
b110000 L
b110000 #"
0@
1-
b0 x
b10010101011 /"
13
12
#4749924
03
02
#4791590
b11111110111101000010011000100011 A
0<
b100011 g
b10011000100011 e
b11111110111101000010011000100011 f
0$"
b11111110111101000010011000100011 .
b11111110111101000010011000100011 >
0-
b10010101010 /"
b11111110111101000010011000100011 4
b11111110111101000010011000100011 ("
b1 x
13
12
#4833256
03
02
#4874922
b0 g
b0 e
b0 f
b0 5
b0 A
b1000000000000000000000000 N
b10000000 {
b0 .
b0 >
b10000000 C
1c
b100000000000000000011 '"
00
11
b100000000000000000011 *
b100000000010000000000000000110001 \
b11111111111111111111100000011100 a
b10000000000000000001100 /
b10000000000000000001100 L
b10000000000000000001100 #"
b10000000000000000001111 [
b11111111111111111111111111101111 ]
b10000000000000000001100 M
b1111 D
0Q
1O
b11111110111101000010000000000000 ^
b11111111111111111111111111101111 i
b11111111111111111111111111101100 _
b11111111111111111111011111101100 k
b11111111111101000010111111101110 h
b1000 F
b1111 E
b1100 G
b1111111 Y
b10 x
b11111110111101000010011000100011 u
b10010101001 /"
13
12
#4916588
03
02
#4958254
1<
b100011 g
b1110000100100011 e
b11011110101011011110000100100011 f
b11011110101011011110000100100011 .
b11011110101011011110000100100011 >
b11011110101011011110000100100011 5
1%
b0 N
b100011 )"
b111111111111111111111111111011 '"
b111111111111111111111111111011 *
b0 C
b11011110101011011110000100100011 ,
b11011110101011011110000100100011 I
b11011110101011011110000100100011 !"
b11011110101011011110000100100011 %"
b11111111111111111111111111101100 /
b11111111111111111111111111101100 L
b11111111111111111111111111101100 #"
b0 {
b0 B
b10010101000 /"
b11 x
b11011110101011011110000100100011 w
b11111111111111111111111111101100 M
b11111111111111111111111111101111 [
b100000000000000000000000000010001 \
b0 =
b0 v
13
12
#4999920
03
02
#5041586
1&
b111000 H
1)
b1111 +
b1111 ?
b110 x
b11111111111111111111100000100000 a
b111000 b
b110100 s
b10010100111 /"
13
12
#5083252
03
02
#5124918
0<
b10011000100011 e
b11111110111101000010011000100011 f
b0x000000000 5
b11111110111101000010011000100011 .
b11111110111101000010011000100011 >
1$"
0%
b1101 '"
10
01
b1101 *
0&
b110100 /
b110100 L
b110100 #"
1-
0)
b0 +
b0 ?
b11 "
b11 ;
b10010100110 /"
b0 x
13
12
#5166584
03
02
#5208250
b10110111 g
b11110110111 e
b10000000000011110110111 f
0$"
0-
b10000000000011110110111 .
b10000000000011110110111 >
b1 x
b10000000000011110110111 4
b10000000000011110110111 ("
b10010100101 /"
13
12
#5249916
03
02
#5291582
b0 5
1d
1<
b1 '"
b1 *
b10000000000000000000000 A
b111111111111111111111111111111100 \
b11111111111111111111111110110111 f
b1 `
b10000000000000000110100 a
b100 /
b100 L
b100 #"
b100 [
b100 ]
b100 M
1K
b100 D
b100 t
1R
0O
b10000000000000000000000 ^
b100 i
b1111 _
b100000001110 k
b100 h
b0 F
b100 E
b1111 G
b0 Z
b0 Y
b10010100100 /"
b10 x
b10000000000011110110111 u
13
12
#5333248
03
02
#5374914
1@
b0 )"
b0 ,
b0 I
b0 !"
b0 %"
b11 x
b0 w
b10010100011 /"
13
12
#5416580
03
02
#5458246
b0x000000000 5
0@
b1110 '"
b1110 *
b111000 /
b111000 L
b111000 #"
1$"
b111100 H
1-
b10010100010 /"
b0 x
b10000000000000000111000 a
b111100 b
b111000 s
13
12
#5499912
03
02
