TASK - 4/RTL/Timer_IP/timer_waves.vcd
$date
	Sat Apr  4 16:10:33 2026
$end
$version
	Icarus Verilog
$end
$timescale
	1ps
$end
$scope module timer_ip_tb $end
$var wire 32 ! timer_rdata [31:0] $end
$var wire 1 " timeout_LED $end
$var wire 32 # ext_LED [31:0] $end
$var reg 1 $ clk $end
$var reg 2 % decode [1:0] $end
$var reg 1 & rstn $end
$var reg 1 ' timer_sel $end
$var reg 32 ( timer_wdata [31:0] $end
$var reg 1 ) wen $end
$scope module dut $end
$var wire 1 $ clk $end
$var wire 2 * decode [1:0] $end
$var wire 32 + ext_LED [31:0] $end
$var wire 1 & rstn $end
$var wire 1 ' timer_sel $end
$var wire 32 , timer_wdata [31:0] $end
$var wire 1 ) wen $end
$var reg 32 - ctrl [31:0] $end
$var reg 32 . load [31:0] $end
$var reg 8 / prescale [7:0] $end
$var reg 32 0 status [31:0] $end
$var reg 1 " timeout_LED $end
$var reg 32 1 timer_rdata [31:0] $end
$var reg 32 2 value [31:0] $end
$upscope $end
$upscope $end
$enddefinitions $end
$comment Show the parameter values. $end
$dumpall
$end
#0
$dumpvars
bx 2
bx 1
bx 0
bx /
bx .
bx -
b0 ,
bx +
b0 *
0)
b0 (
0'
0&
b0 %
0$
bx #
x"
bx !
$end
#5000
b0 !
b0 1
0"
b0 /
b0 0
b0 .
b0 #
b0 +
b0 2
b0 -
1$
#10000
0$
#15000
1$
#20000
0$
#25000
1$
#30000
0$
#35000
1&
1$
#40000
0$
#45000
1$
#50000
0$
#55000
b1010 (
b1010 ,
b1 %
b1 *
1)
1'
1$
#60000
0$
#65000
b11 !
b11 1
b11 -
b11 (
b11 ,
b0 %
b0 *
1$
#70000
0$
#75000
0)
0'
1$
#80000
0$
#85000
b1 0
1"
1$
#90000
0$
#95000
0"
1$
#100000
0$
#105000
1"
1$
#110000
0$
#115000
0"
1$
#120000
0$
#125000
1"
1$
#130000
0$
#135000
0"
1$
#140000
0$
#145000
1"
1$
#150000
0$
#155000
0"
1$
#160000
0$
#165000
1"
1$
#170000
0$
#175000
0"
1$
#180000
0$
#185000
1"
1$
#190000
0$
#195000
0"
1$
#200000
0$
#205000
1"
1$
#210000
0$
#215000
0"
1$
#220000
0$
#225000
1"
1$
#230000
0$
#235000
0"
1$
#240000
0$
#245000
1"
1$
#250000
0$
#255000
0"
1$
#260000
0$
#265000
1"
1$
#270000
0$
#275000
0"
1$
#280000
0$
#285000
1"
1$
#290000
0$
#295000
0"
1$
#300000
0$
#305000
1"
1$
#310000
0$
#315000
0"
1$
#320000
0$
#325000
1"
1$
#330000
0$
#335000
0"
1$
#340000
0$
#345000
1"
1$
#350000
0$
#355000
0"
1$
#360000
0$
#365000
1"
1$
#370000
0$
#375000
0"
1$
#380000
0$
#385000
1"
1$
#390000
0$
#395000
0"
1$
#400000
0$
#405000
1"
1$
#410000
0$
#415000
0"
1$
#420000
0$
#425000
1"
1$
#430000
0$
#435000
0"
1$
#440000
0$
#445000
1"
1$
#450000
0$
#455000
0"
1$
#460000
0$
#465000
1"
1$
#470000
0$
#475000
0"
1$
#480000
0$
#485000
1"
1$
#490000
0$
#495000
0"
1$
#500000
0$
#505000
1"
1$
#510000
0$
#515000
0"
1$
#520000
0$
#525000
1"
1$
#530000
0$
#535000
0"
1$
#540000
0$
#545000
1"
1$
#550000
0$
#555000
0"
1$
#560000
0$
#565000
1"
1$
#570000
0$
#575000
0"
1$
#580000
0$
#585000
1"
1$
#590000
0$
#595000
0"
1$
#600000
0$
#605000
1"
1$
#610000
0$
#615000
0"
1$
#620000
0$
#625000
1"
1$
#630000
0$
#635000
0"
1$
#640000
0$
#645000
1"
1$
#650000
0$
#655000
0"
1$
#660000
0$
#665000
1"
1$
#670000
0$
#675000
0"
1$
#680000
0$
#685000
1"
1$
#690000
0$
#695000
0"
1$
#700000
0$
#705000
1"
1$
#710000
0$
#715000
0"
1$
#720000
0$
#725000
1"
1$
#730000
0$
#735000
0"
1$
#740000
0$
#745000
1"
1$
#750000
0$
#755000
0"
1$
#760000
0$
#765000
1"
1$
#770000
0$
#775000
0"
1$
#780000
0$
#785000
1"
1$
#790000
0$
#795000
0"
1$
#800000
0$
#805000
1"
1$
#810000
0$
#815000
0"
1$
#820000
0$
#825000
1"
1$
#830000
0$
#835000
0"
1$
#840000
0$
#845000
1"
1$
#850000
0$
#855000
0"
1$
#860000
0$
#865000
1"
1$
#870000
0$
#875000
0"
1$
#880000
0$
#885000
1"
1$
#890000
0$
#895000
0"
1$
#900000
0$
#905000
1"
1$
#910000
0$
#915000
0"
1$
#920000
0$
#925000
1"
1$
#930000
0$
#935000
0"
1$
#940000
0$
#945000
1"
1$
#950000
0$
#955000
0"
1$
#960000
0$
#965000
1"
1$
#970000
0$
#975000
0"
1$
#980000
0$
#985000
1"
1$
#990000
0$
#995000
0"
1$
#1000000
0$
#1005000
1"
1$
#1010000
0$
#1015000
0"
1$
#1020000
0$
#1025000
1"
1$
#1030000
0$
#1035000
0"
1$
#1040000
0$
#1045000
1"
1$
#1050000
0$
#1055000
0"
1$
#1060000
0$
#1065000
1"
1$
#1070000
0$
#1075000
0"
1$
#1080000
0$
#1085000
1"
1$
#1090000
0$
#1095000
0"
1$
#1100000
0$
#1105000
1"
1$
#1110000
0$
#1115000
0"
1$
#1120000
0$
#1125000
1"
1$
#1130000
0$
#1135000
0"
1$
#1140000
0$
#1145000
1"
1$
#1150000
0$
#1155000
0"
1$
#1160000
0$
#1165000
1"
1$
#1170000
0$
#1175000
0"
1$
#1180000
0$
#1185000
1"
1$
#1190000
0$
#1195000
0"
1$
#1200000
0$
#1205000
1"
1$
#1210000
0$
#1215000
0"
1$
#1220000
0$
#1225000
1"
1$
#1230000
0$
#1235000
0"
1$
#1240000
0$
#1245000
1"
1$
#1250000
0$
#1255000
0"
1$
#1260000
0$
#1265000
1"
1$
#1270000
0$
#1275000
0"
1$
#1280000
0$
#1285000
1"
1$
#1290000
0$
#1295000
0"
1$
#1300000
0$
#1305000
1"
1$
#1310000
0$
#1315000
0"
1$
#1320000
0$
#1325000
1"
1$
#1330000
0$
#1335000
0"
1$
#1340000
0$
#1345000
1"
1$
#1350000
0$
#1355000
0"
1$
#1360000
0$
#1365000
1"
1$
#1370000
0$
#1375000
0"
1$
#1380000
0$
#1385000
1"
1$
#1390000
0$
#1395000
0"
1$
#1400000
0$
#1405000
1"
1$
#1410000
0$
#1415000
0"
1$
#1420000
0$
#1425000
1"
1$
#1430000
0$
#1435000
0"
1$
#1440000
0$
#1445000
1"
1$
#1450000
0$
#1455000
0"
1$
#1460000
0$
#1465000
1"
1$
#1470000
0$
#1475000
0"
1$
#1480000
0$
#1485000
1"
1$
#1490000
0$
#1495000
0"
1$
#1500000
0$
#1505000
1"
1$
#1510000
0$
#1515000
0"
1$
#1520000
0$
#1525000
1"
1$
#1530000
0$
#1535000
0"
1$
#1540000
0$
#1545000
1"
1$
#1550000
0$
#1555000
0"
1$
#1560000
0$
#1565000
1"
1$
#1570000
0$
#1575000
0"
1$
