TASK - 4/RTL/waves.vcd
$date
	Sun Apr  5 13:41:07 2026
$end
$version
	Icarus Verilog
$end
$timescale
	1ps
$end
$scope module SOC_IP_tb $end
$var wire 32 ! timer_LED [31:0] $end
$var wire 1 " timeout $end
$var wire 1 # TXD $end
$var wire 5 $ LEDS [4:0] $end
$var reg 1 % RESET $end
$var reg 1 & RXD $end
$scope module uut $end
$var wire 1 % RESET $end
$var wire 1 & RXD $end
$var wire 1 ' istimer $end
$var wire 1 ( uart_valid $end
$var wire 1 ) uart_ready $end
$var wire 32 * timer_rdata [31:0] $end
$var wire 32 + timer_LED [31:0] $end
$var wire 1 " timeout $end
$var wire 1 , resetn $end
$var wire 2 - offset [1:0] $end
$var wire 1 . mem_wstrb $end
$var wire 30 / mem_wordaddr [29:0] $end
$var wire 4 0 mem_wmask [3:0] $end
$var wire 32 1 mem_wdata [31:0] $end
$var wire 1 2 mem_rstrb $end
$var wire 32 3 mem_rdata [31:0] $end
$var wire 32 4 mem_addr [31:0] $end
$var wire 1 5 isRAM $end
$var wire 1 6 isIO $end
$var wire 1 7 clk_int $end
$var wire 1 8 clk $end
$var wire 1 # TXD $end
$var wire 32 9 RAM_rdata [31:0] $end
$var wire 32 : IO_rdata [31:0] $end
$var parameter 32 ; IO_LEDS_bit $end
$var parameter 32 < IO_UART_CNTL_bit $end
$var parameter 32 = IO_UART_DAT_bit $end
$var parameter 32 > timerbit $end
$var reg 5 ? LEDS [4:0] $end
$scope module CPU $end
$var wire 1 @ LOAD_sign $end
$var wire 32 A aluIn1 [31:0] $end
$var wire 32 B mem_rdata [31:0] $end
$var wire 1 2 mem_rstrb $end
$var wire 4 C mem_wmask [3:0] $end
$var wire 1 D writeBackEn $end
$var wire 32 E writeBackData [31:0] $end
$var wire 32 F shifter_in [31:0] $end
$var wire 32 G shifter [31:0] $end
$var wire 5 H shamt [4:0] $end
$var wire 5 I rs2Id [4:0] $end
$var wire 5 J rs1Id [4:0] $end
$var wire 1 , resetn $end
$var wire 5 K rdId [4:0] $end
$var wire 32 L nextPC [31:0] $end
$var wire 32 M mem_wdata [31:0] $end
$var wire 1 N mem_halfwordAccess $end
$var wire 1 O mem_byteAccess $end
$var wire 32 P mem_addr [31:0] $end
$var wire 32 Q loadstore_addr [31:0] $end
$var wire 32 R leftshift [31:0] $end
$var wire 1 S isStore $end
$var wire 1 T isSYSTEM $end
$var wire 1 U isLoad $end
$var wire 1 V isLUI $end
$var wire 1 W isJALR $end
$var wire 1 X isJAL $end
$var wire 1 Y isBranch $end
$var wire 1 Z isAUIPC $end
$var wire 1 [ isALUreg $end
$var wire 1 \ isALUimm $end
$var wire 7 ] funct7 [6:0] $end
$var wire 3 ^ funct3 [2:0] $end
$var wire 1 8 clk $end
$var wire 32 _ aluPlus [31:0] $end
$var wire 33 ` aluMinus [32:0] $end
$var wire 32 a aluIn2 [31:0] $end
$var wire 32 b Uimm [31:0] $end
$var wire 32 c Simm [31:0] $end
$var wire 4 d STORE_wmask [3:0] $end
$var wire 32 e PCplusImm [31:0] $end
$var wire 32 f PCplus4 [31:0] $end
$var wire 1 g LTU $end
$var wire 1 h LT $end
$var wire 16 i LOAD_halfword [15:0] $end
$var wire 32 j LOAD_data [31:0] $end
$var wire 8 k LOAD_byte [7:0] $end
$var wire 32 l Jimm [31:0] $end
$var wire 32 m Iimm [31:0] $end
$var wire 1 n EQ $end
$var wire 32 o Bimm [31:0] $end
$var parameter 32 p EXECUTE $end
$var parameter 32 q FETCH_INSTR $end
$var parameter 32 r FETCH_REGS $end
$var parameter 32 s LOAD $end
$var parameter 32 t STORE $end
$var parameter 32 u WAIT_DATA $end
$var parameter 32 v WAIT_INSTR $end
$var reg 32 w PC [31:0] $end
$var reg 32 x aluOut [31:0] $end
$var reg 32 y instr [31:0] $end
$var reg 32 z rs1 [31:0] $end
$var reg 32 { rs2 [31:0] $end
$var reg 3 | state [2:0] $end
$var reg 1 } takeBranch $end
$var integer 32 ~ i [31:0] $end
$scope function flip32 $end
$var reg 32 !" x [31:0] $end
$upscope $end
$upscope $end
$scope module CW $end
$var wire 1 % RESET $end
$var wire 1 , resetn $end
$var wire 1 8 clk $end
$var wire 1 7 CLK $end
$var parameter 32 "" SLOW $end
$scope begin genblk1 $end
$var reg 2 #" reset_cnt [1:0] $end
$upscope $end
$upscope $end
$scope module RAM $end
$var wire 1 8 clk $end
$var wire 32 $" mem_addr [31:0] $end
$var wire 1 %" mem_rstrb $end
$var wire 32 &" mem_wdata [31:0] $end
$var wire 4 '" mem_wmask [3:0] $end
$var wire 30 (" word_addr [29:0] $end
$var reg 32 )" mem_rdata [31:0] $end
$upscope $end
$scope module TIMER $end
$var wire 1 8 clk $end
$var wire 2 *" decode [1:0] $end
$var wire 32 +" ext_LED [31:0] $end
$var wire 1 , rstn $end
$var wire 1 ' timer_sel $end
$var wire 32 ," timer_wdata [31:0] $end
$var wire 1 . wen $end
$var reg 32 -" ctrl [31:0] $end
$var reg 32 ." load [31:0] $end
$var reg 8 /" prescale [7:0] $end
$var reg 32 0" status [31:0] $end
$var reg 1 " timeout_LED $end
$var reg 32 1" timer_rdata [31:0] $end
$var reg 32 2" value [31:0] $end
$upscope $end
$scope module UART $end
$var wire 1 8 i_clk $end
$var wire 8 3" i_data [7:0] $end
$var wire 1 4" i_rst $end
$var wire 1 ( i_valid $end
$var wire 1 # o_uart_tx $end
$var parameter 64 5" START_VALUE $end
$var parameter 32 6" WIDTH $end
$var parameter 32 7" baud_rate $end
$var parameter 64 8" clk_freq_hz $end
$var reg 12 9" cnt [11:0] $end
$var reg 10 :" data [9:0] $end
$var reg 1 ) o_ready $end
$upscope $end
$scope module hfosc $end
$var wire 1 ;" CLKHFEN $end
$var wire 1 <" CLKHFPU $end
$var parameter 32 =" CLKHF_DIV $end
$var reg 1 7 CLKHF $end
$upscope $end
$upscope $end
$upscope $end
$enddefinitions $end
$comment Show the parameter values. $end
$dumpall
b110000011000100011000100110000 ="
b101101110001101100000000 8"
b10010110000000 7"
b1011 6"
b10011100010 5"
b0 ""
b1 v
b101 u
b110 t
b100 s
b10 r
b0 q
b11 p
b10 >
b100 =
b101 <
b11 ;
$end
#0
$dumpvars
1<"
1;"
bx :"
b0 9"
14"
bx 3"
bx 2"
bx 1"
bx 0"
bx /"
bx ."
bx -"
bx ,"
bx +"
b0 *"
bx )"
b0 ("
b0 '"
bx &"
1%"
b0 $"
b0 #"
bx !"
b100000 ~
x}
b0 |
bx {
bx z
bx y
bx x
b0 w
bx0 o
xn
bx m
bx0 l
bx k
bx j
bx i
xh
xg
b100 f
bx e
bx d
bx c
bx000000000000 b
bx a
bx `
bx _
bx ^
bx ]
x\
x[
xZ
xY
xX
xW
xV
xU
xT
xS
bx R
bx Q
b0 P
xO
xN
bx M
bx L
bx K
bx J
bx I
bx H
bx G
bx F
bx E
0D
b0 C
bx B
bx A
x@
bx ?
b0 :
bx 9
08
07
06
15
b0 4
bx 3
12
bx 1
b0 0
b0 /
0.
b0 -
0,
bx +
bx *
x)
0(
0'
1&
1%
bx $
x#
x"
bx !
$end
#10000
0%
#41666
bx1 j
bx1 k
bx1000x00x1 i
b11111111000000010000000100010011 3
b11111111000000010000000100010011 B
b0 *
b0 1"
b11111111000000010000000100010011 9
b11111111000000010000000100010011 )"
0"
b0 /"
b0 0"
b0 ."
b0 !
b0 +
b0 +"
b0 2"
b0 -"
b111111111111 9"
b1 #"
18
17
#83332
08
07
#124998
b0xxxxxxxxx :"
b10011100010 9"
b10 #"
18
17
#166664
08
07
#208330
b10011100001 9"
04"
1,
b11 #"
18
17
#249996
08
07
#291662
0%"
02
b10011100000 9"
b1 |
18
17
#333328
08
07
#374994
bx j
bx k
bx000x00xx i
b0x000000000 :
bx0000000x000000xx000x00xx 3
bx0000000x000000xx000x00xx B
x'
bx ("
bx -
bx *"
x5
x6
bx /
b11111111111111111111111111110000 a
b100 L
bx 4
bx P
bx $"
1O
0N
b10000 H
b11111111000000010000000000000000 e
0[
1\
0Y
0W
0X
0Z
0V
0U
0S
0T
b11111111000000010000000000000000 b
b11111111111111111111111111110000 m
b11111111111111111111111111100010 c
b11111111111111111111011111100010 o
b11111111111100010000011111110000 l
b10 J
b10000 I
b10 K
b0 ^
b1111111 ]
b10 |
b11111111000000010000000100010011 y
b10011011111 9"
18
17
#416660
08
07
#458326
0@
b11111111111111111111111111110000 E
1D
b0 j
b1 d
b0x000000000 3
b0x000000000 B
1'
0h
b0 R
b0 3"
b0x000000000 i
b0 k
b111111111111111111111111111100 ("
b0 -
b0 *"
05
16
b111111111111111111111111111100 /
0}
b0 G
b0 1
b0 M
b0 &"
b0 ,"
b11111111111111111111111111110000 4
b11111111111111111111111111110000 P
b11111111111111111111111111110000 $"
1g
0n
b11111111111111111111111111110000 x
b0 !"
b0 F
b10011011110 9"
b11 |
b0 {
b11111111111111111111111111110000 Q
b11111111111111111111111111110000 _
b100000000000000000000000000010000 `
b0 A
b0 z
18
17
#499992
08
07
#541658
b10011 j
b10011 k
b100010011 i
b0 :
b11111111000000010000000100010011 3
b11111111000000010000000100010011 B
1%"
0'
0D
b1 ("
b1 -
b1 *"
15
06
b1 /
b100 4
b100 P
b100 $"
b1000 L
12
b0 |
b11111111000000010000000000000100 e
b1000 f
b100 w
b10011011101 9"
18
17
#583324
08
07
#624990
b100011 j
b100011 k
b10011000100011 i
0%"
b100010010011000100011 3
b100010010011000100011 B
02
b10011011100 9"
b100010010011000100011 9
b100010010011000100011 )"
b1 |
18
17
#666656
08
07
#708322
b1 E
1h
b11 ("
b11 -
b11 *"
b11 /
b111111111111111111111111111111111 `
b100010010011000100011 j
b1111 d
b10000 e
b1100 4
b1100 P
b1100 $"
b1 _
b1 a
b1100 Q
0O
b1 H
b1 x
0\
1S
b100010010000000000000 b
b1 m
b1100 c
b1100 o
b10010100000000000 l
b1 I
b1100 K
b10 ^
b0 ]
b10 |
b100010010011000100011 y
b10011011011 9"
18
17
#749988
08
07
#791654
b0 k
b0x000000000 i
b0x000000000 j
b0x000000000 :
b0x000000000 3
b0x000000000 B
1'
b11111111111111111111111111110 R
b111111111111111111111111111111 ("
05
16
b111111111111111111111111111111 /
b1111111111111111111111111111000 G
b11111111111111111111111111111100 4
b11111111111111111111111111111100 P
b11111111111111111111111111111100 $"
0g
b1111111111111111111111111111000 !"
b11111111111111111111111111110000 F
b10011011010 9"
b11 |
b11111111111111111111111111111100 Q
b11111111111111111111111111110001 _
b11111111111111111111111111101111 `
b11111111111111111111111111110000 A
b11111111111111111111111111110000 z
18
17
#833320
08
07
#874986
1(
b1100 L
1.
b1111 0
b1111 C
b110 |
b10100 e
b1100 f
b1000 w
b10011011001 9"
18
17
#916652
08
07
#958318
b100011 k
b10011000100011 i
b100010010011000100011 j
b0 :
b100010010011000100011 3
b100010010011000100011 B
1%"
0'
b10 ("
b10 -
b10 *"
15
06
b10 /
0(
b1000 4
b1000 P
b1000 $"
12
0.
b0 0
b0 C
b0 $
b0 ?
b10011011000 9"
b0 |
18
17
#999984
08
07
#1041650
b10010000100011 i
b100000010010010000100011 j
0%"
02
b100000010010010000100011 3
b100000010010010000100011 B
b1 |
b100000010010010000100011 9
b100000010010010000100011 )"
b10011010111 9"
18
17
#1083316
08
07
#1124982
b0 k
b0x000000000 i
b0x000000000 j
b0x000000000 :
b11111111111111111111111100000000 R
b111111111111111111111111 !"
b0x000000000 3
b0x000000000 B
1'
b111111111111111111111111 G
b111111111111111111111111111110 ("
05
16
b111111111111111111111111111110 /
b11111111111111111111111111101000 `
b10000 e
b11111111111111111111111111111000 4
b11111111111111111111111111111000 P
b11111111111111111111111111111000 $"
b11111111111111111111111111111000 _
b1000 a
b11111111111111111111111111111000 Q
b1000 H
b100000010010000000000000 b
b1000 m
b1000 c
b1000 o
b10010000000001000 l
b1000 I
b1000 K
b10011010110 9"
b10 |
b100000010010010000100011 y
18
17
#1166648
08
07
#1208314
b11 |
b10011010101 9"
18
17
#1249980
08
07
#1291646
1(
b10000 L
1.
b1111 0
b1111 C
b10011010100 9"
b110 |
b10100 e
b10000 f
b1100 w
18
17
#1333312
08
07
#1374978
b100011 k
b10010000100011 i
b100000010010010000100011 j
b0 :
b100000010010010000100011 3
b100000010010010000100011 B
1%"
0'
b11 ("
b11 -
b11 *"
15
06
b11 /
0(
b1100 4
b1100 P
b1100 $"
12
0.
b0 0
b0 C
b0 |
b10011010011 9"
18
17
#1416644
08
07
#1458310
b10011 k
b10000010011 i
b1000000010000010000010011 j
0%"
b1000000010000010000010011 3
b1000000010000010000010011 B
02
b10011010010 9"
b1000000010000010000010011 9
b1000000010000010000010011 )"
b1 |
18
17
#1499976
08
07
#1541642
b0 E
b11111111111111110000000000000000 R
b1111111111111111 !"
b1111111111111111 G
b0 ("
b0 -
b0 *"
b0 /
b11111111111111111111111111100000 `
b10011 j
b1 d
b1000000010000000000001100 e
b0 4
b0 P
b0 $"
b0 Q
b0 _
b10000 a
1O
b10000 H
b0 x
1\
0S
b1000000010000000000000000 b
b10000 m
b10000000000010000 l
b10000 I
b0 ^
b10 |
b1000000010000010000010011 y
b10011010001 9"
18
17
#1583308
08
07
#1624974
1D
b10011010000 9"
b11 |
18
17
#1666640
08
07
#1708306
0D
b100 ("
b100 /
b10000 4
b10000 P
b10000 $"
1%"
b10100 L
12
b0 |
b1000000010000000000010000 e
b10100 f
b10000 w
b10011001111 9"
18
17
#1749972
08
07
#1791638
1@
b11111111111111111111111110110111 j
b10110111 k
b11110110111 i
0%"
b10000000000011110110111 3
b10000000000011110110111 B
02
b10011001110 9"
b10000000000011110110111 9
b10000000000011110110111 )"
b1 |
18
17
#1833304
08
07
#1874970
0@
b0 j
b0 k
b0x000000000 i
b0x000000000 :
b11111111111111111111111111110000 R
b1111111111111111111111111111 !"
b0x000000000 3
b0x000000000 B
1'
b1111111111111111111111111111 G
b111111111111111111111111111101 ("
b1 -
b1 *"
05
16
b111111111111111111111111111101 /
b10000000000000000000000 E
b10000000000000000010000 e
b11111111111111111111111111101100 `
b11111111111111111111111111110100 x
b11111111111111111111111111110100 4
b11111111111111111111111111110100 P
b11111111111111111111111111110100 $"
b11111111111111111111111111110100 _
b100 a
b11111111111111111111111111110100 Q
b100 H
0\
1V
b10000000000000000000000 b
b100 m
b1111 c
b100000001110 o
b100 l
b0 J
b100 I
b1111 K
b10 |
b10000000000011110110111 y
b10011001101 9"
18
17
#1916636
08
07
#1958302
1@
b11111111111111111111111110110111 j
b10110111 k
b11110110111 i
b0 :
1D
b10000000000011110110111 3
b10000000000011110110111 B
0'
b0 R
b1 ("
15
06
b1 /
1h
b0 G
b100 4
b100 P
b100 $"
1g
b100 x
b0 !"
b0 F
b10011001100 9"
b11 |
b100 Q
b100 _
b111111111111111111111111111111100 `
b0 A
b0 z
18
17
#1999968
08
07
#2041634
0D
b101 ("
b101 /
b10100 4
b10100 P
b10100 $"
1%"
b11000 L
12
b0 |
b10000000000000000010100 e
b11000 f
b10100 w
b10011001011 9"
18
17
#2083300
08
07
#2124966
b11111111111111111111111110010011 j
b10010011 k
b1000011110010011 i
0%"
b1010001111000011110010011 3
b1010001111000011110010011 B
02
b10011001010 9"
b1010001111000011110010011 9
b1010001111000011110010011 )"
b1 |
18
17
#2166632
08
07
#2208298
b1010001111000000000010100 e
b10100 E
b111111111111111111111111111101100 `
b10100 x
b10100 _
b10100 a
b10100 Q
b10100 H
1\
0V
b1010001111000000000000000 b
b10100 m
b1111000000000010100 l
b1111 J
b10100 I
b10 |
b1010001111000011110010011 y
b10011001001 9"
18
17
#2249964
08
07
#2291630
0@
b0 j
b0 k
b0 i
b10000000000000000010100 E
1D
b0 3
b0 B
1'
b100000000000000000000000000000 R
b100000000000000000101 ("
05
16
b100000000000000000101 /
0h
b100 G
b10000000000000000010100 4
b10000000000000000010100 P
b10000000000000000010100 $"
0g
b10000000000000000010100 x
b100 !"
b10000000000000000000000 F
b10011001000 9"
b11 |
b10000000000000000010100 Q
b10000000000000000010100 _
b1111111111111111101100 `
b10000000000000000000000 A
b10000000000000000000000 z
18
17
#2333296
08
07
#2374962
1@
b11111111111111111111111110010011 j
b10010011 k
b1000011110010011 i
b1010001111000011110010011 3
b1010001111000011110010011 B
1%"
0'
0D
b110 ("
b10 -
b10 *"
15
06
b110 /
b11000 4
b11000 P
b11000 $"
b11100 L
12
b0 |
b1010001111000000000011000 e
b11100 f
b11000 w
b10011000111 9"
18
17
#2416628
08
07
#2458294
0@
b10011 j
b10011 k
b11100010011 i
0%"
b110100000000011100010011 3
b110100000000011100010011 B
02
b10011000110 9"
b110100000000011100010011 9
b110100000000011100010011 )"
b1 |
18
17
#2499960
08
07
#2541626
b10000000000000000001101 E
b0 i
b10 d
b10000000000000000000000 R
b1000000000 !"
b0 j
b0 3
b0 B
b1000000000 G
b0 k
b100000000000000000011 ("
b11 -
b11 *"
05
16
b100000000000000000011 /
b110100000000000000011000 e
b1111111111111111110011 `
b10000000000000000001101 x
b10000000000000000001101 4
b10000000000000000001101 P
b10000000000000000001101 $"
b10000000000000000001101 _
b1101 a
b10000000000000000001101 Q
b1101 H
b110100000000000000000000 b
b1101 m
b1110 c
b1110 o
b100000001100 l
b0 J
b1101 I
b1110 K
b10 |
b110100000000011100010011 y
b10011000101 9"
18
17
#2583292
08
07
#2624958
b111 j
b111 k
b11100010011 i
b1101 E
1D
b110100000000011100010011 3
b110100000000011100010011 B
b0 R
b11 ("
15
06
b11 /
1h
b0 G
b1101 4
b1101 P
b1101 $"
1g
b1101 x
b0 !"
b0 F
b10011000100 9"
b11 |
b1101 Q
b1101 _
b111111111111111111111111111110011 `
b0 A
b0 z
18
17
#2666624
08
07
#2708290
0D
b111 ("
b111 /
b11100 4
b11100 P
b11100 $"
1%"
b100000 L
12
b0 |
b110100000000000000011100 e
b100000 f
b11100 w
b10011000011 9"
18
17
#2749956
08
07
#2791622
1@
b11111111111111111111111110100000 j
b10100000 k
b1010000000100011 i
0%"
b111001111010000000100011 3
b111001111010000000100011 B
02
b10011000010 9"
b111001111010000000100011 9
b111001111010000000100011 )"
b1 |
18
17
#2833288
08
07
#2874954
b1 E
b100011 k
b0 ("
b0 -
b0 *"
b0 /
b111111111111111111111111111110010 `
b111001111010000000100011 j
b1111 d
b11100 e
b0 4
b0 P
b0 $"
b1110 _
b1110 a
b0 Q
0O
b1110 H
b1 x
0\
1S
b111001111010000000000000 b
b1110 m
b0 c
b0 o
b1111010000000001110 l
b1111 J
b1110 I
b0 K
b10 ^
b10 |
b111001111010000000100011 y
b10011000001 9"
18
17
#2916620
08
07
#2958286
0@
b0 k
b0 E
b0 i
b0 j
b0 3
b0 B
1'
b0 x
b100000000000000000000000 R
b1101 3"
b100000000000000000101 ("
b1 -
b1 *"
05
16
b100000000000000000101 /
0h
b100000000 G
b1101 1
b1101 M
b1101 &"
b1101 ,"
b10000000000000000010100 4
b10000000000000000010100 P
b10000000000000000010100 $"
0g
b100000000 !"
b10000000000000000010100 F
b10011000000 9"
b11 |
b1101 {
b10000000000000000010100 Q
b10000000000000000100010 _
b10000000000000000000110 `
b10000000000000000010100 A
b10000000000000000010100 z
18
17
#2999952
08
07
#3041618
b100100 L
1.
b1111 0
b1111 C
b110 |
b100000 e
b100100 f
b100000 w
b10010111111 9"
18
17
#3083284
08
07
#3124950
1@
b100011 k
b1010000000100011 i
b111001111010000000100011 j
b111001111010000000100011 3
b111001111010000000100011 B
1%"
0'
b0 :
b1000 ("
b0 -
b0 *"
15
06
b1000 /
b100000 4
b100000 P
b100000 $"
b0 *
b0 1"
12
0.
b0 0
b0 C
b10010111110 9"
b1101 !
b1101 +
b1101 +"
b1101 2"
b1101 ."
b0 |
18
17
#3166616
08
07
#3208282
0@
b10110111 k
b11110110111 i
b10000000000011110110111 j
0%"
02
b10000000000011110110111 3
b10000000000011110110111 B
b1 |
b10000000000011110110111 9
b10000000000011110110111 )"
b10010111101 9"
18
17
#3249948
08
07
#3291614
b1101 k
b1101 i
b1101 :
b10000000000000000010000000000000 R
b1000000000000000001 !"
b1101 *
b1101 1"
b1101 3
b1101 B
1'
b1000000000000000001 G
0@
b100000000000000000110 ("
b10 -
b10 *"
05
16
b100000000000000000110 /
b10000000000000000000000 E
b10000000000000000010000 `
b1101 j
b1 d
b10000000000000000100000 e
b10000000000000000011000 4
b10000000000000000011000 P
b10000000000000000011000 $"
b10000000000000000011000 _
b100 a
b10000000000000000011000 Q
1O
b100 H
b10000000000000000011000 x
1V
0S
b10000000000000000000000 b
b100 m
b1111 c
b100000001110 o
b100 l
b0 J
b100 I
b1111 K
b0 ^
b10010111100 9"
b10 |
b10000000000011110110111 y
18
17
#3333280
08
07
#3374946
1@
b11111111111111111111111110110111 j
b10110111 k
b11110110111 i
b0 :
1D
b10000000000011110110111 3
b10000000000011110110111 B
0'
b0 R
b0 3"
b1 ("
b1 -
b1 *"
15
06
b1 /
1h
b0 G
b0 1
b0 M
b0 &"
b0 ,"
b100 4
b100 P
b100 $"
1g
b100 x
b0 !"
b0 F
b11 |
b0 {
b100 Q
b100 _
b111111111111111111111111111111100 `
b0 A
b0 z
b10010111011 9"
18
17
#3416612
08
07
#3458278
0D
b1001 ("
b1001 /
b100100 4
b100100 P
b100100 $"
1%"
b101000 L
12
b10010111010 9"
b0 |
b10000000000000000100100 e
b101000 f
b100100 w
18
17
#3499944
08
07
#3541610
b11111111111111111111111110010011 j
b10010011 k
b1000011110010011 i
0%"
02
b1000001111000011110010011 3
b1000001111000011110010011 B
b1 |
b1000001111000011110010011 9
b1000001111000011110010011 )"
b10010111001 9"
18
17
#3583276
08
07
#3624942
b0 *
b0 1"
b100 ("
b0 -
b0 *"
b100 /
b1000001111000000000100100 e
b10000 E
b111111111111111111111111111110000 `
b10000 x
b10000 4
b10000 P
b10000 $"
b10000 _
b10000 a
b10000 Q
b10000 H
1\
0V
b1000001111000000000000000 b
b10000 m
b1111000000000010000 l
b1111 J
b10000 I
b10010111000 9"
b10 |
b1000001111000011110010011 y
18
17
#3666608
08
07
#3708274
0@
b0 j
b0 k
b0 i
b10000000000000000010000 E
1D
b0 3
b0 B
1'
b10000000000000000000000000 R
b100000000000000000100 ("
05
16
b100000000000000000100 /
0h
b1000000 G
b10000000000000000010000 4
b10000000000000000010000 P
b10000000000000000010000 $"
0g
b10000000000000000010000 x
b1000000 !"
b10000000000000000000000 F
b11 |
b10000000000000000010000 Q
b10000000000000000010000 _
b1111111111111111110000 `
b10000000000000000000000 A
b10000000000000000000000 z
b10010110111 9"
18
17
#3749940
08
07
#3791606
1@
b11111111111111111111111110010011 j
b10010011 k
b1000011110010011 i
b1101 *
b1101 1"
b1000001111000011110010011 3
b1000001111000011110010011 B
1%"
0'
0D
b1010 ("
b10 -
b10 *"
15
06
b1010 /
b101000 4
b101000 P
b101000 $"
b101100 L
12
b10010110110 9"
b0 |
b1000001111000000000101000 e
b101100 f
b101000 w
18
17
#3833272
08
07
#3874938
0@
b10011 j
b10011 k
b11100010011 i
0%"
02
b100000011100000000011100010011 3
b100000011100000000011100010011 B
b1 |
b100000011100000000011100010011 9
b100000011100000000011100010011 )"
b10010110101 9"
18
17
#3916604
08
07
#3958270
b10000000000001000000111 E
b10000000000000000 R
b1000000000000000 !"
b0 j
b1000 d
b0 3
b0 B
b1000000000000000 G
b0 i
b0 k
b100000000000010000001 ("
b1 -
b1 *"
05
16
b100000000000010000001 /
b100000011100000000000000101000 e
b1111111111110111111001 `
b10000000000001000000111 x
b10000000000001000000111 4
b10000000000001000000111 P
b10000000000001000000111 $"
b10000000000001000000111 _
b1000000111 a
b10000000000001000000111 Q
b111 H
b100000011100000000000000000000 b
b1000000111 m
b1000001110 c
b1000001110 o
b101000000110 l
b0 J
b111 I
b1110 K
b10000 ]
b10010110100 9"
b10 |
b100000011100000000011100010011 y
18
17
#3999936
08
07
#4041602
b100000 j
b100000 k
b10000001110000 i
b1000000111 E
1D
b100000011100000000011100010011 3
b100000011100000000011100010011 B
b0 R
b10000001 ("
15
06
b10000001 /
1h
b0 G
b1000000111 4
b1000000111 P
b1000000111 $"
1g
b1000000111 x
b0 !"
b0 F
b11 |
b1000000111 Q
b1000000111 _
b111111111111111111111110111111001 `
b0 A
b0 z
b10010110011 9"
18
17
#4083268
08
07
#4124934
b0 *
b0 1"
0D
b1011 ("
b11 -
b11 *"
b1011 /
b101100 4
b101100 P
b101100 $"
1%"
b110000 L
12
b10010110010 9"
b0 |
b100000011100000000000000101100 e
b110000 f
b101100 w
18
17
#4166600
08
07
#4208266
b0 j
b0 k
b11100111 i
0%"
02
b111001111010000000100011 3
b111001111010000000100011 B
b1 |
b111001111010000000100011 9
b111001111010000000100011 )"
b10010110001 9"
18
17
#4249932
08
07
#4291598
1@
b1 E
b1010000000100011 i
b100011 k
b0 ("
b0 -
b0 *"
b0 /
b111111111111111111111111111110010 `
b111001111010000000100011 j
b1111 d
b101100 e
b0 4
b0 P
b0 $"
b1110 _
b1110 a
b0 Q
0O
b1110 H
b1 x
0\
1S
b111001111010000000000000 b
b1110 m
b0 c
b0 o
b1111010000000001110 l
b1111 J
b1110 I
b0 K
b10 ^
b0 ]
b10010110000 9"
b10 |
b111001111010000000100011 y
18
17
#4333264
08
07
#4374930
0@
b0 k
b0 E
b0 i
b0 j
b0 3
b0 B
1'
b0 x
b100000000000000000000000 R
b111 3"
b100000000000000000100 ("
05
16
b100000000000000000100 /
0h
b100000000 G
b1000000111 1
b1000000111 M
b1000000111 &"
b1000000111 ,"
b10000000000000000010000 4
b10000000000000000010000 P
b10000000000000000010000 $"
0g
b100000000 !"
b10000000000000000010000 F
b11 |
b1000000111 {
b10000000000000000010000 Q
b10000000000000000011110 _
b10000000000000000000010 `
b10000000000000000010000 A
b10000000000000000010000 z
b10010101111 9"
18
17
#4416596
08
07
#4458262
b110100 L
1.
b1111 0
b1111 C
b10010101110 9"
b110 |
b110000 e
b110100 f
b110000 w
18
17
#4499928
08
07
#4541594
1@
b100011 k
b1010000000100011 i
b111001111010000000100011 j
1%"
0'
b111001111010000000100011 3
b111001111010000000100011 B
b1100 ("
15
06
b1100 /
b0 :
b110000 4
b110000 P
b110000 $"
12
0.
b0 0
b0 C
b1000000111 *
b1000000111 1"
b0 |
b10 /"
b1000000111 -"
b10010101101 9"
18
17
#4583260
08
07
#4624926
0@
b10011 k
b10011 i
b10011 j
0%"
b10011 3
b10011 B
02
b10010101100 9"
b1 /"
b10011 9
b10011 )"
b1 |
18
17
#4666592
08
07
#4708258
b111 j
b111 k
b1000000111 i
b1000000111 :
b10000000000000000010000 E
b1000000000000000001000000000 R
b10000000000000000010000 !"
b1000000111 3
b1000000111 B
1'
b10000000000000000010000 G
b100000000000000000100 ("
05
16
b100000000000000000100 /
b10000000000000000010000 `
b1 d
b10000000000000000010000 4
b10000000000000000010000 P
b10000000000000000010000 $"
b10000000000000000010000 _
b0 a
1O
b0 H
b10000000000000000010000 x
1\
0S
b0 b
b0 m
b0 l
b0 J
b0 I
b0 ^
b10 |
b10011 y
b0 /"
b10010101011 9"
18
17
#4749924
08
07
#4791590
b10011 j
b10011 k
b10011 i
b0 :
b0 E
1D
b10011 3
b10011 B
0'
b0 R
b0 3"
b0 ("
15
06
b0 /
1}
b0 G
b0 1
b0 M
b0 &"
b0 ,"
b0 4
b0 P
b0 $"
1n
b0 x
b0 !"
b0 F
b10010101010 9"
b1100 !
b1100 +
b1100 +"
b1100 2"
b10 /"
b11 |
b0 {
b0 Q
b0 _
b0 `
b0 A
b0 z
18
17
#4833256
08
07
#4874922
b1101 *
b1101 1"
0D
b1101 ("
b1 -
b1 *"
b1101 /
b110100 4
b110100 P
b110100 $"
1%"
b111000 L
12
b0 |
b110100 e
b111000 f
b110100 w
b1 /"
b10010101001 9"
18
17
#4916588
08
07
#4958254
1@
b11111111111111111111111110110111 j
b10110111 k
b11110110111 i
0%"
b10000000000011110110111 3
b10000000000011110110111 B
02
b10010101000 9"
b0 /"
b10000000000011110110111 9
b10000000000011110110111 )"
b1 |
18
17
#4999920
08
07
#5041586
1h
0}
1g
0n
b1 ("
b1 /
b10000000000000000000000 E
b10000000000000000110100 e
b111111111111111111111111111111100 `
b100 x
b100 4
b100 P
b100 $"
b100 _
b100 a
b100 Q
b100 H
0\
1V
b10000000000000000000000 b
b100 m
b1111 c
b100000001110 o
b100 l
b100 I
b1111 K
b10 |
b10000000000011110110111 y
b1011 !
b1011 +
b1011 +"
b1011 2"
b10 /"
b10010100111 9"
18
17
#5083252
08
07
#5124918
1D
b10010100110 9"
b1 /"
b11 |
18
17
#5166584
08
07
#5208250
b1011 *
b1011 1"
0D
b1110 ("
b10 -
b10 *"
b1110 /
b111000 4
b111000 P
b111000 $"
1%"
b111100 L
12
b0 |
b10000000000000000111000 e
b111100 f
b111000 w
b0 /"
b10010100101 9"
18
17
#5249916
08
07
#5291582
b11111111111111111111111110010011 j
b10010011 k
b1000011110010011 i
0%"
b1010 *
b1010 1"
b1110001111000011110010011 3
b1110001111000011110010011 B
02
b10010100100 9"
b1010 !
b1010 +
b1010 +"
b1010 2"
b10 /"
b1110001111000011110010011 9
b1110001111000011110010011 )"
b1 |
18
17
#5333248
08
07
#5374914
b0 *
b0 1"
b111 ("
b11 -
b11 *"
b111 /
b1110001111000000000111000 e
b11100 E
b111111111111111111111111111100100 `
b11100 x
b11100 4
b11100 P
b11100 $"
b11100 _
b11100 a
b11100 Q
b11100 H
1\
0V
b1110001111000000000000000 b
b11100 m
b1111000000000011100 l
b1111 J
b11100 I
b10 |
b1110001111000011110010011 y
b1 /"
b10010100011 9"
18
17
#5416580
08
07
